lab6/lab6part4/simulation/qsim/lab6part4.msim.vcd
$comment
	File created using the following command:
		vcd file lab6part4.msim.vcd -direction
$end
$date
	Sun Sep 25 20:10:23 2022
$end
$version
	ModelSim Version 10.1d
$end
$timescale
	1ps
$end
$scope module lab6part4_vlg_vec_tst $end
$var reg 1 ! key0 $end
$var reg 1 " key1 $end
$var reg 10 # sw [9:0] $end
$var wire 1 $ debug [15] $end
$var wire 1 % debug [14] $end
$var wire 1 & debug [13] $end
$var wire 1 ' debug [12] $end
$var wire 1 ( debug [11] $end
$var wire 1 ) debug [10] $end
$var wire 1 * debug [9] $end
$var wire 1 + debug [8] $end
$var wire 1 , debug [7] $end
$var wire 1 - debug [6] $end
$var wire 1 . debug [5] $end
$var wire 1 / debug [4] $end
$var wire 1 0 debug [3] $end
$var wire 1 1 debug [2] $end
$var wire 1 2 debug [1] $end
$var wire 1 3 debug [0] $end
$var wire 1 4 hex0 [0] $end
$var wire 1 5 hex0 [1] $end
$var wire 1 6 hex0 [2] $end
$var wire 1 7 hex0 [3] $end
$var wire 1 8 hex0 [4] $end
$var wire 1 9 hex0 [5] $end
$var wire 1 : hex0 [6] $end
$var wire 1 ; hex1 [0] $end
$var wire 1 < hex1 [1] $end
$var wire 1 = hex1 [2] $end
$var wire 1 > hex1 [3] $end
$var wire 1 ? hex1 [4] $end
$var wire 1 @ hex1 [5] $end
$var wire 1 A hex1 [6] $end
$var wire 1 B hex2 [0] $end
$var wire 1 C hex2 [1] $end
$var wire 1 D hex2 [2] $end
$var wire 1 E hex2 [3] $end
$var wire 1 F hex2 [4] $end
$var wire 1 G hex2 [5] $end
$var wire 1 H hex2 [6] $end
$var wire 1 I hex3 [0] $end
$var wire 1 J hex3 [1] $end
$var wire 1 K hex3 [2] $end
$var wire 1 L hex3 [3] $end
$var wire 1 M hex3 [4] $end
$var wire 1 N hex3 [5] $end
$var wire 1 O hex3 [6] $end
$var wire 1 P ledr [7] $end
$var wire 1 Q ledr [6] $end
$var wire 1 R ledr [5] $end
$var wire 1 S ledr [4] $end
$var wire 1 T ledr [3] $end
$var wire 1 U ledr [2] $end
$var wire 1 V ledr [1] $end
$var wire 1 W ledr [0] $end
$var wire 1 X sampler $end
$scope module i1 $end
$var wire 1 Y gnd $end
$var wire 1 Z vcc $end
$var wire 1 [ unknown $end
$var tri1 1 \ devclrn $end
$var tri1 1 ] devpor $end
$var tri1 1 ^ devoe $end
$var wire 1 _ f2|u0:1:cell_i|c_out~1_combout $end
$var wire 1 ` f1|u0:4:cell_i|s~0_combout $end
$var wire 1 a f2|u0:4:cell_i|s~combout $end
$var wire 1 b f5|u0:5:cell_i|s~combout $end
$var wire 1 c f3|u0:7:cell_i|s~combout $end
$var wire 1 d key0~input_o $end
$var wire 1 e key1~input_o $end
$var wire 1 f ~QUARTUS_CREATED_GND~I_combout $end
$var wire 1 g sw[0]~input_o $end
$var wire 1 h sw[1]~input_o $end
$var wire 1 i sw[2]~input_o $end
$var wire 1 j sw[3]~input_o $end
$var wire 1 k sw[4]~input_o $end
$var wire 1 l sw[5]~input_o $end
$var wire 1 m sw[6]~input_o $end
$var wire 1 n sw[7]~input_o $end
$var wire 1 o sw[9]~input_o $end
$var wire 1 p r0|d0|Q~combout $end
$var wire 1 q sw[8]~input_o $end
$var wire 1 r r1|d0|Q~combout $end
$var wire 1 s r0|d1|Q~combout $end
$var wire 1 t r1|d1|Q~combout $end
$var wire 1 u f1|f0|s~0_combout $end
$var wire 1 v r0|d2|Q~combout $end
$var wire 1 w r1|d2|Q~combout $end
$var wire 1 x f2|f0|s~0_combout $end
$var wire 1 y r0|d3|Q~combout $end
$var wire 1 z f1|u0:2:cell_i|s~combout $end
$var wire 1 { r1|d3|Q~combout $end
$var wire 1 | f2|u0:1:cell_i|s~0_combout $end
$var wire 1 } f3|f0|s~0_combout $end
$var wire 1 ~ r1|d4|Q~combout $end
$var wire 1 !! f2|u0:1:cell_i|s~combout $end
$var wire 1 "! r0|d4|Q~combout $end
$var wire 1 #! f1|u0:3:cell_i|s~0_combout $end
$var wire 1 $! f2|u0:1:cell_i|c_out~0_combout $end
$var wire 1 %! f1|u0:2:cell_i|c_out~combout $end
$var wire 1 &! comb~0_combout $end
$var wire 1 '! f2|u0:2:cell_i|s~combout $end
$var wire 1 (! f3|u0:1:cell_i|s~combout $end
$var wire 1 )! f4|f0|s~0_combout $end
$var wire 1 *! r1|d5|Q~combout $end
$var wire 1 +! comb~1_combout $end
$var wire 1 ,! f3|u0:1:cell_i|c_out~1_combout $end
$var wire 1 -! f2|u0:2:cell_i|c_out~0_combout $end
$var wire 1 .! comb~3_combout $end
$var wire 1 /! comb~2_combout $end
$var wire 1 0! comb~4_combout $end
$var wire 1 1! f2|u0:3:cell_i|s~0_combout $end
$var wire 1 2! f3|u0:1:cell_i|c_out~0_combout $end
$var wire 1 3! f3|u0:2:cell_i|s~combout $end
$var wire 1 4! f4|u0:1:cell_i|s~combout $end
$var wire 1 5! f5|f0|s~0_combout $end
$var wire 1 6! r1|d6|Q~combout $end
$var wire 1 7! f4|u0:1:cell_i|c_out~1_combout $end
$var wire 1 8! f4|u0:1:cell_i|c_out~0_combout $end
$var wire 1 9! comb~5_combout $end
$var wire 1 :! comb~9_combout $end
$var wire 1 ;! r0|d5|Q~combout $end
$var wire 1 <! r0|d6|Q~combout $end
$var wire 1 =! f1|u0:5:cell_i|s~0_combout $end
$var wire 1 >! f1|u0:5:cell_i|s~combout $end
$var wire 1 ?! f1|u0:4:cell_i|s~combout $end
$var wire 1 @! comb~6_combout $end
$var wire 1 A! comb~7_combout $end
$var wire 1 B! f3|u0:3:cell_i|s~0_combout $end
$var wire 1 C! f4|u0:2:cell_i|s~combout $end
$var wire 1 D! f5|u0:1:cell_i|s~combout $end
$var wire 1 E! f6|f0|s~0_combout $end
$var wire 1 F! f5|u0:2:cell_i|s~0_combout $end
$var wire 1 G! comb~13_combout $end
$var wire 1 H! f4|u0:2:cell_i|c_out~combout $end
$var wire 1 I! comb~11_combout $end
$var wire 1 J! f3|u0:2:cell_i|c_out~combout $end
$var wire 1 K! f2|u0:4:cell_i|c_out~0_combout $end
$var wire 1 L! r0|d7|Q~combout $end
$var wire 1 M! f1|u0:6:cell_i|s~0_combout $end
$var wire 1 N! f1|u0:5:cell_i|c_out~0_combout $end
$var wire 1 O! comb~12_combout $end
$var wire 1 P! f2|u0:5:cell_i|s~0_combout $end
$var wire 1 Q! f3|u0:4:cell_i|s~combout $end
$var wire 1 R! f4|u0:3:cell_i|s~combout $end
$var wire 1 S! f6|u0:1:cell_i|s~0_combout $end
$var wire 1 T! r1|d7|Q~combout $end
$var wire 1 U! comb~10_combout $end
$var wire 1 V! f7|f0|s~0_combout $end
$var wire 1 W! f6|u0:1:cell_i|s~combout $end
$var wire 1 X! f5|u0:1:cell_i|c_out~0_combout $end
$var wire 1 Y! comb~14_combout $end
$var wire 1 Z! comb~16_combout $end
$var wire 1 [! f1|u0:6:cell_i|s~combout $end
$var wire 1 \! comb~19_combout $end
$var wire 1 ]! comb~8_combout $end
$var wire 1 ^! f1|u0:5:cell_i|c_out~1_combout $end
$var wire 1 _! f1|u0:5:cell_i|c_out~2_combout $end
$var wire 1 `! comb~18_combout $end
$var wire 1 a! f1|u0:7:cell_i|s~combout $end
$var wire 1 b! f3|u0:5:cell_i|s~0_combout $end
$var wire 1 c! f4|u0:4:cell_i|s~combout $end
$var wire 1 d! f5|u0:3:cell_i|s~combout $end
$var wire 1 e! comb~21_combout $end
$var wire 1 f! f6|u0:1:cell_i|c_out~0_combout $end
$var wire 1 g! comb~20_combout $end
$var wire 1 h! f7|u0:1:cell_i|s~combout $end
$var wire 1 i! comb~27_combout $end
$var wire 1 j! f7|u0:1:cell_i|c_out~1_combout $end
$var wire 1 k! f7|u0:1:cell_i|c_out~0_combout $end
$var wire 1 l! f7|u0:1:cell_i|c_out~2_combout $end
$var wire 1 m! comb~22_combout $end
$var wire 1 n! comb~17_combout $end
$var wire 1 o! comb~26_combout $end
$var wire 1 p! f2|u0:7:cell_i|s~0_combout $end
$var wire 1 q! f2|u0:7:cell_i|s~combout $end
$var wire 1 r! comb~15_combout $end
$var wire 1 s! comb~25_combout $end
$var wire 1 t! f2|u0:6:cell_i|s~combout $end
$var wire 1 u! f3|u0:6:cell_i|s~combout $end
$var wire 1 v! f4|u0:4:cell_i|c_out~0_combout $end
$var wire 1 w! comb~24_combout $end
$var wire 1 x! comb~23_combout $end
$var wire 1 y! f5|u0:4:cell_i|s~0_combout $end
$var wire 1 z! f5|u0:3:cell_i|c_out~0_combout $end
$var wire 1 {! f6|u0:3:cell_i|s~combout $end
$var wire 1 |! f7|u0:2:cell_i|s~combout $end
$var wire 1 }! comb~29_combout $end
$var wire 1 ~! f4|u0:5:cell_i|s~combout $end
$var wire 1 !" f3|u0:4:cell_i|c_out~0_combout $end
$var wire 1 "" f3|u0:6:cell_i|c_out~0_combout $end
$var wire 1 #" comb~31_combout $end
$var wire 1 $" comb~32_combout $end
$var wire 1 %" f1|u0:7:cell_i|c_out~0_combout $end
$var wire 1 &" f3|u0:7:cell_i|s~0_combout $end
$var wire 1 '" f4|u0:6:cell_i|s~combout $end
$var wire 1 (" f6|u0:4:cell_i|s~0_combout $end
$var wire 1 )" f6|u0:3:cell_i|c_out~0_combout $end
$var wire 1 *" comb~28_combout $end
$var wire 1 +" f7|u0:3:cell_i|s~combout $end
$var wire 1 ," f7|u0:3:cell_i|c_out~0_combout $end
$var wire 1 -" comb~36_combout $end
$var wire 1 ." comb~30_combout $end
$var wire 1 /" f5|u0:5:cell_i|c_out~0_combout $end
$var wire 1 0" comb~33_combout $end
$var wire 1 1" f4|u0:5:cell_i|c_out~0_combout $end
$var wire 1 2" f2|u0:6:cell_i|c_out~0_combout $end
$var wire 1 3" f3|u0:7:cell_i|c_out~0_combout $end
$var wire 1 4" comb~35_combout $end
$var wire 1 5" comb~34_combout $end
$var wire 1 6" f5|u0:6:cell_i|s~0_combout $end
$var wire 1 7" f6|u0:5:cell_i|s~combout $end
$var wire 1 8" f7|u0:4:cell_i|s~combout $end
$var wire 1 9" comb~37_combout $end
$var wire 1 :" f4|u0:7:cell_i|s~combout $end
$var wire 1 ;" f4|u0:7:cell_i|c_out~0_combout $end
$var wire 1 <" comb~39_combout $end
$var wire 1 =" f6|u0:6:cell_i|s~0_combout $end
$var wire 1 >" f6|u0:5:cell_i|c_out~0_combout $end
$var wire 1 ?" f7|u0:5:cell_i|s~combout $end
$var wire 1 @" f5|u0:6:cell_i|c_out~0_combout $end
$var wire 1 A" comb~38_combout $end
$var wire 1 B" comb~41_combout $end
$var wire 1 C" f6|u0:7:cell_i|s~combout $end
$var wire 1 D" comb~40_combout $end
$var wire 1 E" f7|u0:5:cell_i|c_out~0_combout $end
$var wire 1 F" f7|u0:6:cell_i|s~combout $end
$var wire 1 G" comb~42_combout $end
$var wire 1 H" f6|u0:7:cell_i|c_out~0_combout $end
$var wire 1 I" f7|u0:7:cell_i|s~combout $end
$var wire 1 J" f7|u0:7:cell_i|c_out~0_combout $end
$var wire 1 K" h3|hex[6]~0_combout $end
$var wire 1 L" h3|hex[5]~1_combout $end
$var wire 1 M" h3|hex[4]~2_combout $end
$var wire 1 N" h3|hex[3]~3_combout $end
$var wire 1 O" h3|hex[2]~4_combout $end
$var wire 1 P" h3|hex[1]~5_combout $end
$var wire 1 Q" h3|hex[0]~6_combout $end
$var wire 1 R" h2|hex[6]~0_combout $end
$var wire 1 S" h2|hex[5]~1_combout $end
$var wire 1 T" h2|hex[4]~2_combout $end
$var wire 1 U" h2|hex[3]~3_combout $end
$var wire 1 V" h2|hex[2]~4_combout $end
$var wire 1 W" h2|hex[1]~5_combout $end
$var wire 1 X" h2|hex[0]~6_combout $end
$var wire 1 Y" h1|hex[6]~0_combout $end
$var wire 1 Z" h1|hex[5]~1_combout $end
$var wire 1 [" h1|hex[4]~2_combout $end
$var wire 1 \" h1|hex[3]~3_combout $end
$var wire 1 ]" h1|hex[2]~4_combout $end
$var wire 1 ^" h1|hex[1]~5_combout $end
$var wire 1 _" h1|hex[0]~6_combout $end
$var wire 1 `" h0|hex[6]~0_combout $end
$var wire 1 a" h0|hex[5]~1_combout $end
$var wire 1 b" h0|hex[4]~2_combout $end
$var wire 1 c" h0|hex[3]~3_combout $end
$var wire 1 d" h0|hex[2]~4_combout $end
$var wire 1 e" h0|hex[1]~5_combout $end
$var wire 1 f" h0|hex[0]~6_combout $end
$var wire 1 g" p [15] $end
$var wire 1 h" p [14] $end
$var wire 1 i" p [13] $end
$var wire 1 j" p [12] $end
$var wire 1 k" p [11] $end
$var wire 1 l" p [10] $end
$var wire 1 m" p [9] $end
$var wire 1 n" p [8] $end
$var wire 1 o" p [7] $end
$var wire 1 p" p [6] $end
$var wire 1 q" p [5] $end
$var wire 1 r" p [4] $end
$var wire 1 s" p [3] $end
$var wire 1 t" p [2] $end
$var wire 1 u" p [1] $end
$var wire 1 v" p [0] $end
$upscope $end
$upscope $end
$enddefinitions $end
#0
$dumpvars
1!
1"
b111111111 #
x3
x2
x1
x0
x/
x.
x-
x,
x+
x*
x)
x(
x'
x&
x%
x$
x:
x9
x8
x7
x6
x5
x4
xA
x@
x?
x>
x=
x<
x;
xH
xG
xF
xE
xD
xC
xB
xO
xN
xM
xL
xK
xJ
xI
1W
1V
1U
1T
1S
1R
1Q
1P
xX
0Y
1Z
x[
1\
1]
1^
x_
x`
xa
xb
xc
1d
1e
0f
1g
1h
1i
1j
1k
1l
1m
1n
0o
xp
1q
1r
xs
1t
xu
xv
1w
xx
xy
xz
1{
x|
x}
1~
x!!
x"!
x#!
x$!
x%!
x&!
x'!
x(!
x)!
1*!
x+!
x,!
x-!
x.!
x/!
x0!
x1!
x2!
x3!
x4!
x5!
16!
x7!
x8!
x9!
x:!
x;!
x<!
x=!
x>!
x?!
x@!
xA!
xB!
xC!
xD!
xE!
xF!
xG!
xH!
xI!
xJ!
xK!
xL!
xM!
xN!
xO!
xP!
xQ!
xR!
xS!
1T!
xU!
xV!
xW!
xX!
xY!
xZ!
x[!
x\!
x]!
x^!
x_!
x`!
xa!
xb!
xc!
xd!
xe!
xf!
xg!
xh!
xi!
xj!
xk!
xl!
xm!
xn!
xo!
xp!
xq!
xr!
xs!
xt!
xu!
xv!
xw!
xx!
xy!
xz!
x{!
x|!
x}!
x~!
x!"
x""
x#"
x$"
x%"
x&"
x'"
x("
x)"
x*"
x+"
x,"
x-"
x."
x/"
x0"
x1"
x2"
x3"
x4"
x5"
x6"
x7"
x8"
x9"
x:"
x;"
x<"
x="
x>"
x?"
x@"
xA"
xB"
xC"
xD"
xE"
xF"
xG"
xH"
xI"
xJ"
xK"
xL"
xM"
xN"
xO"
xP"
xQ"
xR"
xS"
xT"
xU"
xV"
xW"
xX"
xY"
xZ"
x["
x\"
x]"
x^"
x_"
x`"
xa"
xb"
xc"
xd"
xe"
xf"
xv"
zu"
zt"
zs"
zr"
zq"
zp"
zo"
zn"
zm"
zl"
zk"
zj"
zi"
zh"
zg"
$end
#20000
0"
0e
0X
#40000
1"
1e
1X
#60000
0"
0e
0X
#70000
b1111111111 #
b1011111111 #
0q
1o
1X
1p
1s
1v
1y
1"!
1;!
1<!
1L!
1_
1z
0|
1$!
1%!
12!
18!
1U!
1j!
1e!
1&!
1+!
19!
1g!
1i!
0#!
1.!
10!
1@!
1G!
1m!
1*"
0`
1/!
1:!
1A!
1I!
1Y!
1x!
1}!
1-"
0=!
1N!
1O!
1]!
1^!
1r!
1w!
1."
10"
19"
0M!
1Z!
1`!
1s!
1#"
15"
1A"
1D"
1\!
1n!
1o!
1$"
14"
1<"
1B"
1G"
1v"
0u
0x
1'!
0-!
1!!
1,!
01!
1>!
1?!
1_!
0k!
0P!
1[!
0a!
0p!
1%"
1H"
13
02
01
0}
1b"
0d"
0e"
1(!
13!
17!
0J!
1a
0B!
1K!
1b!
1q!
0t!
12"
0&"
13"
00
18
06
05
1J"
0M"
1`"
1a"
1c"
1f"
14!
1C!
0H!
1Q!
1!"
1""
1;"
1$
0M
1:
19
17
14
0)!
1D!
0F!
0S!
1X!
1R!
0c!
1v!
1u!
1c
0/
05!
1f!
1W!
0d!
1z!
0y!
1~!
1'"
11"
06"
1:"
0.
0E!
0V!
0Z"
1l!
1{!
1)"
1b
0("
1/"
0="
1@"
0-
0,
0@
0h!
1Y"
0["
0\"
0]"
0^"
0_"
1,"
17"
1>"
1C"
0+
1A
0?
0>
0=
0<
0;
1|!
1+"
1E"
1*
1)
18"
1?"
0R"
0S"
0T"
0U"
1V"
1W"
0X"
1I"
1(
1'
0H
0G
0F
0E
1D
1C
0B
1%
1F"
0K"
0L"
1N"
1O"
1P"
0Q"
1&
0O
0N
1L
1K
1J
0I
#80000
1"
1e
0X
#100000
0"
0e
1X
#120000
1"
1e
0X
#140000
0"
0e
1X
#160000
b1001111111 #
b1000111111 #
b1000011111 #
b1000001111 #
b1000000111 #
b1000000011 #
b1000000001 #
b1 #
b100000001 #
1"
1q
0o
1e
0X
0h
0i
0j
0k
0l
0m
0n
0t
0w
0{
0~
0*!
06!
0T!
0V
0U
0T
0S
0R
0Q
0P
0_
1`
1#!
0%!
0.!
0:!
1=!
1M!
0N!
0\!
0`!
0$!
0&!
00!
0A!
0O!
0Z!
0o!
0+!
0,!
02!
07!
08!
0@!
0I!
0r!
0s!
0$"
09!
0G!
0Y!
0w!
0#"
04"
0X!
1d!
0x!
0z!
0."
05"
0<"
0f!
0g!
0m!
0}!
00"
0A"
0B"
0U!
0e!
0i!
0j!
0*"
0-"
09"
0D"
0G"
1u
1x
1}
1)!
15!
1E!
1-!
11!
0_!
0[!
1a!
0%"
0a
0q!
1t!
02"
1&"
1J!
1H!
0Q!
0""
0R!
1c!
0v!
0~!
0'"
0:"
0d!
0{!
0)"
1("
0/"
0H"
07"
1k!
12
11
10
1/
1.
1-
1h!
1V!
0|!
0+"
08"
0?"
0V"
0F"
0I"
1M"
0N"
0O"
0P"
0`"
0a"
0b"
1d"
1e"
0f"
1Z"
1["
1\"
1a
1B!
0K!
1P!
1[!
0a!
0&"
03"
1Q!
0!"
1'"
0C!
0c!
0W!
1d!
1y!
1~!
01"
0b
0("
1="
0@"
0l!
0,"
0>"
0E"
1+
1,
0*
0)
0(
0'
0D
0&
0%
1M
0L
0K
0J
0:
09
08
16
15
04
1@
1?
1>
0V!
0h!
1|!
1+"
1I"
0J"
1N"
1Q"
18"
1?"
1T"
0W"
0Y"
0Z"
0["
1]"
1^"
1C!
0b!
0t!
0c
0'"
0;"
1R!
1c!
0u!
1b
1("
0D!
0d!
1{!
0C"
0,
0+
1*
1)
1%
0$
1L
1I
1(
1'
1F
0C
0A
0@
0?
1=
1<
1h!
0+"
0|!
08"
0T"
1W"
1F"
0I"
1L"
0N"
0Q"
1Y"
1Z"
1["
0]"
0^"
1D!
0c!
0b
0("
0="
1W!
1d!
0y!
0~!
1+
0)
0*
0(
0F
1C
1&
0%
1N
0L
0I
1A
1@
1?
0=
0<
1V!
1+"
0E!
0h!
1|!
0F"
1K"
1N"
1Q"
1R"
1S"
1T"
1U"
0W"
1X"
0d!
0{!
1,
1)
0-
0+
1*
0&
1O
1L
1I
1H
1G
1F
1E
0C
1B
1E!
0+"
0?"
1h!
0Y"
0Z"
0["
0\"
1^"
1_"
0R"
0S"
0T"
0U"
1W"
0X"
1-
0)
0'
1+
0A
0@
0?
0>
1<
1;
0H
0G
0F
0E
1C
0B
0h!
0|!
1\"
1]"
0_"
1S"
1T"
0W"
0L"
0M"
0N"
0Q"
0+
0*
1>
1=
0;
1G
1F
0C
0N
0M
0L
0I
1R"
0S"
0T"
1H
0G
0F
#180000
0"
0e
1X
#200000
1"
1e
0X
#220000
0"
0e
1X
#240000
1"
1e
0X
#260000
0"
0e
1X
#270000
b101000001 #
b101010001 #
b101011001 #
b1101011001 #
b1001011001 #
0q
1o
0X
1j
1k
1m
0s
0v
0;!
0L!
1T
1S
1Q
0`
0]!
0M!
0n!
0u
0x
01!
0?!
0P!
0[!
02
01
1b"
0c"
0d"
0e"
03!
0Q!
18
07
06
05
04!
0R!
0W!
05!
0V!
0.
0,
1["
0\"
0]"
1?
0>
0=
#280000
1"
1e
1X
#300000
0"
0e
0X
#320000
1"
1e
1X
#340000
0"
0e
0X
#360000
1"
1e
1X
#380000
0"
0e
0X
#390000
b1001011000 #
b1011011000 #
b1011111000 #
b1011111010 #
b1011110010 #
b11110010 #
b111110010 #
1q
0o
1X
0g
1h
0j
1l
1n
0r
1t
1~
1*!
16!
1T!
0W
1V
0T
1R
1P
1`
0z
0/!
0=!
1M!
0^!
1.!
1:!
1`!
14!
18!
1G!
1Y!
1#"
1S!
1d!
1x!
15"
1m!
1}!
1A"
1U!
1*"
1-"
1D"
0v"
1u
0)!
15!
0E!
11!
1?!
0!!
0>!
1P!
1[!
0D!
1F!
0S!
1X!
1R!
1c!
1'"
16"
1W!
0k!
1{!
1y!
1("
1="
03
12
0/
1.
0-
0}
05!
1h!
1+"
18"
0R"
1F"
0K"
1L"
1O"
0b"
1c"
1Z"
0["
1]"
0^"
13!
0a
0B!
1Q!
0W!
1k!
1z!
1b
0("
17"
1l!
1,"
0{!
1)"
00
0.
1+
1)
1(
0H
1&
0O
1N
1K
08
17
1@
0?
1=
0<
1E!
1V!
0h!
1|!
0+"
1?"
1a"
0c"
1d"
1Y"
0Z"
0]"
1S"
1X"
04!
0R!
0c!
1v!
0l!
0b
1{!
1("
0)"
1/"
07"
1>"
1E"
1-
1,
0+
1*
0)
1'
19
07
16
1A
0@
0=
1G
1B
1h!
0?"
0S"
1U"
0X"
1]"
1^"
1M"
0O"
1D!
0F!
1S!
0X!
1W!
0k!
0z!
0y!
1~!
0>"
0="
1@"
0E"
1C"
1+
0'
0G
1E
0B
1=
1<
1M
0K
15!
0V!
08"
1?"
1S"
1T"
0U"
0F"
1I"
0L"
1N"
1Q"
1l!
1.
0,
0(
1'
1G
1F
0E
0&
1%
0N
1L
1I
0E!
0h!
0N"
1P"
0Q"
0Y"
0]"
0-
0+
0L
1J
0I
0A
0=
0|!
1+"
1Z"
1]"
0^"
0T"
1V"
0*
1)
1@
1=
0<
0F
1D
0S"
1T"
1U"
0V"
1X"
0G
1F
1E
0D
1B
#400000
1"
1e
0X
#420000
0"
0e
1X
#440000
1"
1e
0X
#460000
0"
0e
1X
#480000
1"
1e
0X
#500000
0"
0e
1X
#520000
1"
1e
0X
#540000
b110110010 #
b110100010 #
b110100011 #
b100100011 #
b100000011 #
b100000001 #
b1100000001 #
b1000000001 #
0"
0q
1o
0e
1X
1g
0h
0k
0l
0m
0n
0y
0"!
0<!
1W
0V
0S
0R
0Q
0P
0#!
0.!
0G!
0d!
0m!
0*"
0`
0:!
0Y!
0x!
0}!
0-"
0M!
0`!
0#"
05"
0A"
0D"
0'!
01!
0?!
1R!
0v!
0l!
0{!
1b
1y!
0/"
0P!
0[!
0'"
06"
0@"
0C"
1h!
0+"
18"
0?"
1R"
0T"
0U"
1V"
1W"
0X"
1F"
0I"
1L"
0P"
0(!
03!
08!
0W!
1f!
1k!
0y!
0~!
0,"
1{!
0Q!
0b
0("
1+
0)
1(
0'
1H
0F
0E
1D
1C
0B
1&
0%
1N
0J
1V!
1+"
0F"
1K"
0L"
0M"
0R"
1T"
0V"
0W"
0C!
0{!
0R!
1,
1)
0&
1O
0N
0M
0H
1F
0D
0C
1)!
08"
1W"
1|!
0+"
0Z"
1\"
0]"
0D!
0S!
1W!
0f!
0k!
1/
0(
1C
1*
0)
0@
1>
0=
0|!
0V!
0\"
1^"
1_"
1S"
0W"
0W!
1k!
0*
0,
0>
1<
1;
1G
0C
1E!
1V!
1R"
1U"
1X"
1Z"
1["
0^"
0_"
1-
1,
1H
1E
1B
1@
1?
0<
0;
0h!
0Z"
0["
1\"
1]"
1^"
0+
0@
0?
1>
1=
1<
0S"
0T"
0U"
0X"
0G
0F
0E
0B
#560000
1"
1e
0X
#580000
0"
0e
1X
#600000
1"
1e
0X
#620000
0"
0e
1X
#640000
1"
1e
0X
#660000
0"
0e
1X
#680000
1"
1e
0X
#700000
b1000000101 #
b1000001101 #
b1001001101 #
b1001011101 #
b1001011100 #
b1001111100 #
b1111100 #
b101111100 #
0"
1q
0o
0e
1X
0g
1i
1j
1k
1l
1m
0t
1w
1{
0T!
0W
1U
1T
1S
1R
1Q
0U!
0u
1x
1}
02
11
10
0V!
1`"
0a"
1e"
0,
1:
09
15
1Y"
1Z"
1["
0]"
0^"
1A
1@
1?
0=
0<
#720000
1"
1e
0X
#740000
0"
0e
1X
#760000
1"
1e
0X
#780000
0"
0e
1X
#800000
1"
1e
0X
#820000
b101111110 #
b101110110 #
b100110110 #
b100100110 #
b100000110 #
b1100000110 #
b1000000110 #
0"
0q
1o
0e
1X
1h
0j
0k
0l
0m
0p
1s
1v
1V
0T
0S
0R
0Q
1|
1$!
1(!
12!
14!
18!
1D!
1F!
1S!
1&!
1+!
19!
1g!
0x
0}
0)!
05!
0E!
1!!
1'!
13!
1C!
1f!
01
00
0/
0.
0-
1}
1)!
15!
1E!
1h!
0d"
0e"
0Z"
0["
0\"
0(!
03!
0J!
04!
0C!
0H!
0D!
0F!
1X!
1{!
10
1/
1.
1-
1+
06
05
0@
0?
0>
0h!
0`"
1Z"
1["
1\"
1S"
1T"
1U"
1X"
14!
1D!
1F!
0X!
1R!
0f!
1W!
1d!
0+
0:
1@
1?
1>
1G
1F
1E
1B
0)!
05!
0E!
1V!
1|!
0S"
0T"
0U"
0X"
0/
0.
0-
1,
1*
0G
0F
0E
0B
15!
1E!
0Y"
0Z"
0["
0\"
0R"
1S"
1V"
1.
1-
0A
0@
0?
0>
0H
1G
1D
1]"
1^"
1=
1<
#840000
1"
1e
0X
#860000
0"
0e
1X
#880000
1"
1e
0X
#900000
0"
0e
1X
#920000
1"
1e
0X
#940000
b1000000010 #
b1000000000 #
b0 #
0"
0o
0e
1X
0h
0i
0V
0U
#960000
1"
1e
0X
#980000
0"
0e
1X
