lab7/lab7part1/simulation/qsim/lab7part1.msim.vcd
$comment
	File created using the following command:
		vcd file lab7part1.msim.vcd -direction
$end
$date
	Wed Oct 05 01:31:34 2022
$end
$version
	ModelSim Version 10.1d
$end
$timescale
	1ps
$end
$scope module lab7part1_vlg_vec_tst $end
$var reg 1 ! key0 $end
$var reg 1 " sw0 $end
$var reg 1 # sw1 $end
$var wire 1 $ ledr [9] $end
$var wire 1 % ledr [8] $end
$var wire 1 & ledr [7] $end
$var wire 1 ' ledr [6] $end
$var wire 1 ( ledr [5] $end
$var wire 1 ) ledr [4] $end
$var wire 1 * ledr [3] $end
$var wire 1 + ledr [2] $end
$var wire 1 , ledr [1] $end
$var wire 1 - ledr [0] $end
$var wire 1 . sampler $end
$scope module i1 $end
$var wire 1 / gnd $end
$var wire 1 0 vcc $end
$var wire 1 1 unknown $end
$var tri1 1 2 devclrn $end
$var tri1 1 3 devpor $end
$var tri1 1 4 devoe $end
$var wire 1 5 key0~input_o $end
$var wire 1 6 ~QUARTUS_CREATED_GND~I_combout $end
$var wire 1 7 key0~inputCLKENA0_outclk $end
$var wire 1 8 sw0~input_o $end
$var wire 1 9 f0|Q~q $end
$var wire 1 : f5|Q~1_combout $end
$var wire 1 ; f2|Q~0_combout $end
$var wire 1 < f2|Q~q $end
$var wire 1 = sw1~input_o $end
$var wire 1 > f3|Q~0_combout $end
$var wire 1 ? f3|Q~q $end
$var wire 1 @ f4|Q~0_combout $end
$var wire 1 A f4|Q~q $end
$var wire 1 B f5|Q~0_combout $end
$var wire 1 C f5|Q~q $end
$var wire 1 D f1|Q~1_combout $end
$var wire 1 E f6|Q~0_combout $end
$var wire 1 F f6|Q~q $end
$var wire 1 G f7|Q~0_combout $end
$var wire 1 H f7|Q~q $end
$var wire 1 I f8|Q~0_combout $end
$var wire 1 J f8|Q~q $end
$var wire 1 K f1|Q~0_combout $end
$var wire 1 L f1|Q~q $end
$var wire 1 M z~0_combout $end
$upscope $end
$upscope $end
$enddefinitions $end
#0
$dumpvars
1!
0"
0#
0-
0,
0+
0*
0)
0(
0'
0&
0%
0$
x.
0/
10
x1
12
13
14
15
06
17
08
09
0:
0;
0<
0=
0>
0?
0@
0A
0B
0C
0D
0E
0F
0G
0H
0I
0J
0K
0L
0M
$end
#20000
0!
05
07
0.
#30000
1"
18
1.
1D
#40000
1!
15
17
0.
#60000
0!
05
07
1.
19
1K
1-
#80000
1#
1!
1=
15
17
0.
1:
0D
1B
0K
#100000
0!
05
07
1.
1C
1E
1(
#120000
0#
1!
0=
15
17
0.
0:
1D
0E
0B
1K
#140000
0!
05
07
1.
0C
1L
1;
0(
1,
#160000
1!
15
17
0.
#180000
0!
05
07
1.
1<
1>
1+
#200000
1!
15
17
0.
#220000
0!
05
07
1.
1?
1@
1*
#240000
1!
15
17
0.
#260000
0!
05
07
1.
1A
1)
1M
1$
#280000
1#
1!
1=
15
17
0.
1:
0;
0>
0@
0D
1B
0K
#300000
0!
05
07
1.
0<
0?
0A
1C
0L
1E
0+
0*
0)
1(
0,
0M
0$
#320000
1!
15
17
0.
#340000
0!
05
07
1.
1F
1G
1'
#360000
1!
15
17
0.
#380000
0!
05
07
1.
1H
1I
1&
#400000
1!
15
17
0.
#420000
0!
05
07
1.
1J
1%
1M
1$
#440000
0#
1!
0=
15
17
0.
0:
1D
0E
0G
0I
0B
1K
#460000
0!
05
07
1.
0C
0F
0H
0J
1L
1;
0(
0'
0&
0%
1,
0M
0$
#480000
1!
15
17
0.
#500000
0!
05
07
1.
1<
1>
1+
#520000
1!
15
17
0.
#540000
0!
05
07
1.
1?
1@
1*
#560000
1!
15
17
0.
#580000
0!
05
07
1.
1A
1)
1M
1$
#600000
1!
15
17
0.
#620000
0!
05
07
1.
#640000
1!
15
17
0.
#660000
0!
05
07
1.
#680000
1!
15
17
0.
#700000
0!
05
07
1.
#720000
1!
15
17
0.
#740000
0!
05
07
1.
#760000
1!
15
17
0.
#780000
0!
05
07
1.
#800000
1!
15
17
0.
#820000
0!
05
07
1.
#840000
1!
15
17
0.
#860000
0!
05
07
1.
#880000
1!
15
17
0.
#900000
0!
05
07
1.
#920000
1!
15
17
0.
#940000
0!
05
07
1.
#960000
1!
15
17
0.
#980000
0!
05
07
1.
