lab7/lab7part3/simulation/qsim/lab7part3.msim.vcd
$comment
	File created using the following command:
		vcd file lab7part3.msim.vcd -direction
$end
$date
	Thu Sep 29 03:08:25 2022
$end
$version
	ModelSim Version 10.1d
$end
$timescale
	1ps
$end
$scope module lab7part3_vlg_vec_tst $end
$var reg 1 ! key0 $end
$var reg 1 " sw0 $end
$var reg 1 # sw1 $end
$var wire 1 $ ledr [9] $end
$var wire 1 % ledr [8] $end
$var wire 1 & ledr [7] $end
$var wire 1 ' ledr [6] $end
$var wire 1 ( ledr [5] $end
$var wire 1 ) ledr [4] $end
$var wire 1 * ledr [3] $end
$var wire 1 + ledr [2] $end
$var wire 1 , ledr [1] $end
$var wire 1 - ledr [0] $end
$var wire 1 . sampler $end
$scope module i1 $end
$var wire 1 / gnd $end
$var wire 1 0 vcc $end
$var wire 1 1 unknown $end
$var tri1 1 2 devclrn $end
$var tri1 1 3 devpor $end
$var tri1 1 4 devoe $end
$var wire 1 5 key0~input_o $end
$var wire 1 6 ~QUARTUS_CREATED_GND~I_combout $end
$var wire 1 7 key0~inputCLKENA0_outclk $end
$var wire 1 8 sw1~input_o $end
$var wire 1 9 u1|temp[0]~feeder_combout $end
$var wire 1 : sw0~input_o $end
$var wire 1 ; u1|temp[1]~DUPLICATE_q $end
$var wire 1 < u1|temp[2]~feeder_combout $end
$var wire 1 = u1|temp[2]~DUPLICATE_q $end
$var wire 1 > u1|temp[3]~feeder_combout $end
$var wire 1 ? u2|temp[0]~0_combout $end
$var wire 1 @ u2|temp[1]~feeder_combout $end
$var wire 1 A u2|temp[3]~feeder_combout $end
$var wire 1 B Equal0~0_combout $end
$var wire 1 C z~0_combout $end
$var wire 1 D u2|temp [3] $end
$var wire 1 E u2|temp [2] $end
$var wire 1 F u2|temp [1] $end
$var wire 1 G u2|temp [0] $end
$var wire 1 H u1|temp [3] $end
$var wire 1 I u1|temp [2] $end
$var wire 1 J u1|temp [1] $end
$var wire 1 K u1|temp [0] $end
$upscope $end
$upscope $end
$enddefinitions $end
#0
$dumpvars
1!
0"
0#
0-
0,
0+
0*
0)
0(
0'
0&
0%
0$
x.
0/
10
x1
12
13
14
15
06
17
08
09
0:
0;
0<
0=
0>
1?
0@
0A
0B
0C
0G
0F
0E
0D
0K
0J
0I
0H
$end
#20000
0!
05
07
0.
#30000
1"
1:
1.
#40000
1!
15
17
0.
#50000
1#
18
1.
19
0?
#60000
0!
05
07
0.
1K
1-
#80000
1!
15
17
1.
#100000
0#
0!
08
05
07
0.
09
1?
1;
1J
1<
1,
#120000
1!
15
17
1.
#140000
0!
05
07
0.
1=
0K
1I
1G
1>
1@
0-
1+
1)
#160000
1!
15
17
1.
#180000
0!
05
07
0.
0;
0J
1H
1F
0<
0,
1*
1(
#200000
1!
15
17
1.
#220000
0!
05
07
0.
0=
0I
1E
0>
1A
0+
1'
#240000
1!
15
17
1.
#260000
0!
05
07
0.
0H
1D
0*
1&
1C
1$
#280000
1#
1!
18
15
17
1.
19
0?
#300000
0!
05
07
0.
1K
0G
0@
1-
0)
0C
0$
#320000
1!
15
17
1.
#340000
0!
05
07
0.
1;
1J
0F
1<
1,
0(
#360000
1!
15
17
1.
#380000
0!
05
07
0.
1=
1I
0E
1>
0A
1+
0'
#400000
1!
15
17
1.
#420000
0!
05
07
0.
1H
0D
1B
1*
0&
1C
1$
#440000
1!
15
17
1.
#460000
0!
05
07
0.
#480000
0#
1!
08
15
17
1.
09
1?
#500000
0!
05
07
0.
0K
1G
0B
1@
0-
1)
0C
0$
#520000
1!
15
17
1.
#540000
0!
05
07
0.
0;
0J
1F
0<
0,
1(
#560000
1!
15
17
1.
#580000
0!
05
07
0.
0=
0I
1E
0>
1A
0+
1'
#600000
1!
15
17
1.
#620000
0!
05
07
0.
0H
1D
0*
1&
1C
1$
#640000
1!
15
17
1.
#660000
0!
05
07
0.
#680000
1!
15
17
1.
#700000
0!
05
07
0.
#720000
1!
15
17
1.
#740000
0!
05
07
0.
#760000
1!
15
17
1.
#780000
0!
05
07
0.
#800000
1!
15
17
1.
#820000
0!
05
07
0.
#840000
1!
15
17
1.
#860000
0!
05
07
0.
#880000
1!
15
17
1.
#900000
0!
05
07
0.
#920000
1!
15
17
1.
#940000
0!
05
07
0.
#960000
1!
15
17
1.
#980000
0!
05
07
0.
