lab7/lab7part3/simulation/qsim/lab7part3.msim.vcd
$comment
	File created using the following command:
		vcd file lab7part3.msim.vcd -direction
$end
$date
	Thu Sep 29 10:29:39 2022
$end
$version
	ModelSim Version 10.5b
$end
$timescale
	1ps
$end

$scope module lab7part3_vhd_vec_tst $end
$var wire 1 ! key0 $end
$var wire 1 " ledr [9] $end
$var wire 1 # ledr [8] $end
$var wire 1 $ ledr [7] $end
$var wire 1 % ledr [6] $end
$var wire 1 & ledr [5] $end
$var wire 1 ' ledr [4] $end
$var wire 1 ( ledr [3] $end
$var wire 1 ) ledr [2] $end
$var wire 1 * ledr [1] $end
$var wire 1 + ledr [0] $end
$var wire 1 , sw0 $end
$var wire 1 - sw1 $end

$scope module i1 $end
$var wire 1 . gnd $end
$var wire 1 / vcc $end
$var wire 1 0 unknown $end
$var wire 1 1 devoe $end
$var wire 1 2 devclrn $end
$var wire 1 3 devpor $end
$var wire 1 4 ww_devoe $end
$var wire 1 5 ww_devclrn $end
$var wire 1 6 ww_devpor $end
$var wire 1 7 ww_sw1 $end
$var wire 1 8 ww_key0 $end
$var wire 1 9 ww_sw0 $end
$var wire 1 : ww_ledr [9] $end
$var wire 1 ; ww_ledr [8] $end
$var wire 1 < ww_ledr [7] $end
$var wire 1 = ww_ledr [6] $end
$var wire 1 > ww_ledr [5] $end
$var wire 1 ? ww_ledr [4] $end
$var wire 1 @ ww_ledr [3] $end
$var wire 1 A ww_ledr [2] $end
$var wire 1 B ww_ledr [1] $end
$var wire 1 C ww_ledr [0] $end
$var wire 1 D \~QUARTUS_CREATED_GND~I_combout\ $end
$var wire 1 E \key0~input_o\ $end
$var wire 1 F \key0~inputCLKENA0_outclk\ $end
$var wire 1 G \sw1~input_o\ $end
$var wire 1 H \u1|temp[0]~feeder_combout\ $end
$var wire 1 I \sw0~input_o\ $end
$var wire 1 J \u1|temp[1]~feeder_combout\ $end
$var wire 1 K \u1|temp[1]~DUPLICATE_q\ $end
$var wire 1 L \u1|temp[2]~DUPLICATE_q\ $end
$var wire 1 M \u2|temp[0]~0_combout\ $end
$var wire 1 N \u2|temp[1]~feeder_combout\ $end
$var wire 1 O \u2|temp[1]~DUPLICATE_q\ $end
$var wire 1 P \u2|temp[2]~DUPLICATE_q\ $end
$var wire 1 Q \Equal0~0_combout\ $end
$var wire 1 R \z~0_combout\ $end
$var wire 1 S \u1|temp\ [3] $end
$var wire 1 T \u1|temp\ [2] $end
$var wire 1 U \u1|temp\ [1] $end
$var wire 1 V \u1|temp\ [0] $end
$var wire 1 W \u2|temp\ [3] $end
$var wire 1 X \u2|temp\ [2] $end
$var wire 1 Y \u2|temp\ [1] $end
$var wire 1 Z \u2|temp\ [0] $end
$var wire 1 [ \u1|ALT_INV_temp\ [3] $end
$var wire 1 \ \u1|ALT_INV_temp\ [2] $end
$var wire 1 ] \u1|ALT_INV_temp\ [1] $end
$var wire 1 ^ \u1|ALT_INV_temp\ [0] $end
$var wire 1 _ \u2|ALT_INV_temp\ [3] $end
$var wire 1 ` \u2|ALT_INV_temp\ [2] $end
$var wire 1 a \u2|ALT_INV_temp\ [1] $end
$var wire 1 b \u2|ALT_INV_temp\ [0] $end
$var wire 1 c \u2|ALT_INV_temp[2]~DUPLICATE_q\ $end
$var wire 1 d \u2|ALT_INV_temp[1]~DUPLICATE_q\ $end
$var wire 1 e \u1|ALT_INV_temp[1]~DUPLICATE_q\ $end
$var wire 1 f \ALT_INV_key0~inputCLKENA0_outclk\ $end
$var wire 1 g \ALT_INV_sw1~input_o\ $end
$var wire 1 h \ALT_INV_Equal0~0_combout\ $end
$upscope $end
$upscope $end
$enddefinitions $end
#0
$dumpvars
1!
0,
0-
0.
1/
x0
11
12
13
14
15
16
07
18
09
xD
1E
1F
0G
0H
0I
0J
0K
0L
1M
0N
0O
0P
0Q
0R
1c
1d
1e
0f
1g
1h
0:
0;
0<
0=
0>
0?
0@
0A
0B
0C
0S
0T
0U
0V
0W
0X
0Y
0Z
1[
1\
x]
1^
1_
x`
xa
1b
0"
0#
0$
0%
0&
0'
0(
0)
0*
0+
$end
#20000
0!
08
0E
0F
1f
#30000
1,
19
1I
#40000
1!
18
1E
1F
0f
#50000
1-
17
1G
0g
1H
0M
#60000
0!
08
0E
0F
1f
1V
0^
1J
1C
1+
#80000
1!
18
1E
1F
0f
#100000
0!
0-
08
07
0G
0E
0F
1g
1f
0H
1M
1U
1K
0e
1B
1*
#120000
1!
18
1E
1F
0f
#140000
0!
08
0E
0F
1f
0V
1T
1L
1Z
0b
0\
1^
0J
1N
1?
1A
0C
0+
1)
1'
#160000
1!
18
1E
1F
0f
#180000
0!
08
0E
0F
1f
0U
0K
1S
1Y
1O
0d
0[
1e
1>
1@
0B
0*
1(
1&
#200000
1!
18
1E
1F
0f
#220000
0!
08
0E
0F
1f
0T
0L
1X
1P
0c
1\
1=
0A
0)
1%
#240000
1!
18
1E
1F
0f
#260000
0!
08
0E
0F
1f
0S
1W
0_
1[
1R
1<
0@
0(
1$
1:
1"
#280000
1!
1-
18
17
1G
1E
1F
0g
0f
1H
0M
#300000
0!
08
0E
0F
1f
1V
0Z
1b
0^
1J
0N
0R
0?
1C
1+
0'
0:
0"
#320000
1!
18
1E
1F
0f
#340000
0!
08
0E
0F
1f
1U
1K
0Y
0O
1d
0e
0>
1B
1*
0&
#360000
1!
18
1E
1F
0f
#380000
0!
08
0E
0F
1f
1T
1L
0X
0P
1c
0\
0=
1A
1)
0%
#400000
1!
18
1E
1F
0f
#420000
0!
08
0E
0F
1f
1S
0W
1_
0[
1Q
0h
0<
1@
1R
1(
0$
1:
1"
#440000
1!
18
1E
1F
0f
#460000
0!
08
0E
0F
1f
#480000
1!
0-
18
07
0G
1E
1F
1g
0f
0H
1M
#500000
0!
08
0E
0F
1f
0V
1Z
0b
1^
0J
0Q
1N
1h
1?
0C
0R
0+
1'
0:
0"
#520000
1!
18
1E
1F
0f
#540000
0!
08
0E
0F
1f
0U
0K
1Y
1O
0d
1e
1>
0B
0*
1&
#560000
1!
18
1E
1F
0f
#580000
0!
08
0E
0F
1f
0T
0L
1X
1P
0c
1\
1=
0A
0)
1%
#600000
1!
18
1E
1F
0f
#620000
0!
08
0E
0F
1f
0S
1W
0_
1[
1R
1<
0@
0(
1$
1:
1"
#640000
1!
18
1E
1F
0f
#660000
0!
08
0E
0F
1f
#680000
1!
18
1E
1F
0f
#700000
0!
08
0E
0F
1f
#720000
1!
18
1E
1F
0f
#740000
0!
08
0E
0F
1f
#760000
1!
18
1E
1F
0f
#780000
0!
08
0E
0F
1f
#800000
1!
18
1E
1F
0f
#820000
0!
08
0E
0F
1f
#840000
1!
18
1E
1F
0f
#860000
0!
08
0E
0F
1f
#880000
1!
18
1E
1F
0f
#900000
0!
08
0E
0F
1f
#920000
1!
18
1E
1F
0f
#940000
0!
08
0E
0F
1f
#960000
1!
18
1E
1F
0f
#980000
0!
08
0E
0F
1f
