lab2/part2/simulation/qsim/lab2part2.msim.vcd
$comment
	File created using the following command:
		vcd file lab2part2.msim.vcd -direction
$end
$date
	Wed Aug 10 00:58:06 2022
$end
$version
	ModelSim Version 10.1d
$end
$timescale
	1ps
$end
$scope module lab2part2_vlg_vec_tst $end
$var reg 4 ! v [3:0] $end
$var wire 1 " hex0 [0] $end
$var wire 1 # hex0 [1] $end
$var wire 1 $ hex0 [2] $end
$var wire 1 % hex0 [3] $end
$var wire 1 & hex0 [4] $end
$var wire 1 ' hex0 [5] $end
$var wire 1 ( hex0 [6] $end
$var wire 1 ) hex1 [0] $end
$var wire 1 * hex1 [1] $end
$var wire 1 + hex1 [2] $end
$var wire 1 , hex1 [3] $end
$var wire 1 - hex1 [4] $end
$var wire 1 . hex1 [5] $end
$var wire 1 / hex1 [6] $end
$var wire 1 0 sampler $end
$scope module i1 $end
$var wire 1 1 gnd $end
$var wire 1 2 vcc $end
$var wire 1 3 unknown $end
$var tri1 1 4 devclrn $end
$var tri1 1 5 devpor $end
$var tri1 1 6 devoe $end
$var wire 1 7 hex1[6]~output_o $end
$var wire 1 8 hex1[5]~output_o $end
$var wire 1 9 hex1[4]~output_o $end
$var wire 1 : hex1[3]~output_o $end
$var wire 1 ; hex1[2]~output_o $end
$var wire 1 < hex1[1]~output_o $end
$var wire 1 = hex1[0]~output_o $end
$var wire 1 > hex0[6]~output_o $end
$var wire 1 ? hex0[5]~output_o $end
$var wire 1 @ hex0[4]~output_o $end
$var wire 1 A hex0[3]~output_o $end
$var wire 1 B hex0[2]~output_o $end
$var wire 1 C hex0[1]~output_o $end
$var wire 1 D hex0[0]~output_o $end
$var wire 1 E v[2]~input_o $end
$var wire 1 F v[3]~input_o $end
$var wire 1 G v[1]~input_o $end
$var wire 1 H g4|LessThan0~0_combout $end
$var wire 1 I v[0]~input_o $end
$var wire 1 J g3|hex[6]~0_combout $end
$var wire 1 K g3|hex[5]~1_combout $end
$var wire 1 L g3|hex[4]~2_combout $end
$var wire 1 M g3|Equal4~0_combout $end
$var wire 1 N g3|hex[1]~3_combout $end
$var wire 1 O g3|hex[0]~4_combout $end
$var wire 1 P g3|hex [0] $end
$var wire 1 Q g3|hex [1] $end
$var wire 1 R g3|hex [2] $end
$var wire 1 S g3|hex [3] $end
$var wire 1 T g3|hex [4] $end
$var wire 1 U g3|hex [5] $end
$var wire 1 V g3|hex [6] $end
$upscope $end
$upscope $end
$enddefinitions $end
#0
$dumpvars
b0 !
1(
0'
0&
0%
0$
0#
0"
1/
0.
0-
0,
0+
0*
0)
x0
01
12
x3
14
15
16
17
08
09
0:
0;
0<
0=
1>
0?
0@
0A
0B
0C
0D
0E
0F
0G
0H
0I
1J
0K
0L
0M
0N
0O
zV
zU
zT
0S
zR
zQ
zP
$end
#50000
b1 !
1I
00
1O
1S
1L
1K
1D
1A
1@
1?
1"
1%
1&
1'
#100000
b11 !
b10 !
0I
1G
10
0O
1M
0S
0L
0J
0D
1B
0A
0@
0>
0"
1$
0%
0&
0(
#150000
b11 !
1I
00
0M
1L
0B
1@
0$
1&
#200000
b111 !
b101 !
b100 !
0I
0G
1E
10
1O
1S
0K
1D
1A
0?
1"
1%
0'
#250000
b101 !
1I
00
0O
1N
0S
0D
1C
0A
0"
1#
0%
#300000
b111 !
b110 !
0I
1G
10
0L
0@
0&
#350000
b111 !
1I
00
0N
1S
1L
1K
1J
0C
1A
1@
1?
1>
0#
1%
1&
1'
1(
#400000
b1111 !
b1011 !
b1001 !
b1000 !
0I
0G
0E
1F
10
0S
0L
0K
0J
0A
0@
0?
0>
0%
0&
0'
0(
#450000
b1001 !
1I
00
1L
1@
1&
#500000
b1011 !
b1010 !
0I
1G
10
0L
1J
1H
0@
1>
1=
1:
19
18
0&
1(
1)
1,
1-
1.
#550000
b1011 !
1I
00
1O
1S
1L
1K
1D
1A
1@
1?
1"
1%
1&
1'
#600000
b1111 !
b1101 !
b1100 !
0I
0G
1E
10
0O
1M
0S
0L
0J
0D
1B
0A
0@
0>
0"
1$
0%
0&
0(
#650000
b1101 !
1I
00
0M
1L
0B
1@
0$
1&
#700000
b1111 !
b1110 !
0I
1G
10
1O
1S
0K
1D
1A
0?
1"
1%
0'
#750000
b1111 !
1I
00
0O
1N
0S
0D
1C
0A
0"
1#
0%
#800000
b111 !
b11 !
b1 !
b0 !
0I
0G
0E
0F
10
0N
0L
1J
0H
0C
0@
1>
0=
0:
09
08
0#
0&
1(
0)
0,
0-
0.
#850000
b1 !
1I
00
1O
1S
1L
1K
1D
1A
1@
1?
1"
1%
1&
1'
#900000
b11 !
b10 !
0I
1G
10
0O
1M
0S
0L
0J
0D
1B
0A
0@
0>
0"
1$
0%
0&
0(
#950000
b11 !
1I
00
0M
1L
0B
1@
0$
1&
