lab8_old/lab8part3/simulation/qsim/lab8part3.msim.vcd
$comment
	File created using the following command:
		vcd file lab8part3.msim.vcd -direction
$end
$date
	Wed Oct 05 23:17:13 2022
$end
$version
	ModelSim Version 10.1d
$end
$timescale
	1ps
$end
$scope module lab8part3_vlg_vec_tst $end
$var reg 1 ! key0 $end
$var reg 10 " sw [9:0] $end
$var wire 1 # hex0 [0] $end
$var wire 1 $ hex0 [1] $end
$var wire 1 % hex0 [2] $end
$var wire 1 & hex0 [3] $end
$var wire 1 ' hex0 [4] $end
$var wire 1 ( hex0 [5] $end
$var wire 1 ) hex0 [6] $end
$var wire 1 * hex2 [0] $end
$var wire 1 + hex2 [1] $end
$var wire 1 , hex2 [2] $end
$var wire 1 - hex2 [3] $end
$var wire 1 . hex2 [4] $end
$var wire 1 / hex2 [5] $end
$var wire 1 0 hex2 [6] $end
$var wire 1 1 hex4 [0] $end
$var wire 1 2 hex4 [1] $end
$var wire 1 3 hex4 [2] $end
$var wire 1 4 hex4 [3] $end
$var wire 1 5 hex4 [4] $end
$var wire 1 6 hex4 [5] $end
$var wire 1 7 hex4 [6] $end
$var wire 1 8 hex5 [0] $end
$var wire 1 9 hex5 [1] $end
$var wire 1 : hex5 [2] $end
$var wire 1 ; hex5 [3] $end
$var wire 1 < hex5 [4] $end
$var wire 1 = hex5 [5] $end
$var wire 1 > hex5 [6] $end
$var wire 1 ? sampler $end
$scope module i1 $end
$var wire 1 @ gnd $end
$var wire 1 A vcc $end
$var wire 1 B unknown $end
$var tri1 1 C devclrn $end
$var tri1 1 D devpor $end
$var tri1 1 E devoe $end
$var wire 1 F sw[9]~input_o $end
$var wire 1 G key0~input_o $end
$var wire 1 H ~QUARTUS_CREATED_GND~I_combout $end
$var wire 1 I sw[8]~input_o $end
$var wire 1 J sw[4]~input_o $end
$var wire 1 K sw[6]~input_o $end
$var wire 1 L sw[7]~input_o $end
$var wire 1 M sw[5]~input_o $end
$var wire 1 N h1|hex[5]~0_combout $end
$var wire 1 O h1|hex[4]~1_combout $end
$var wire 1 P h1|hex[3]~2_combout $end
$var wire 1 Q h1|hex[2]~3_combout $end
$var wire 1 R h1|hex[1]~4_combout $end
$var wire 1 S h1|hex[0]~5_combout $end
$var wire 1 T sw[1]~input_o $end
$var wire 1 U sw[0]~input_o $end
$var wire 1 V sw[3]~input_o $end
$var wire 1 W sw[2]~input_o $end
$var wire 1 X h3|hex[5]~0_combout $end
$var wire 1 Y h3|hex[4]~1_combout $end
$var wire 1 Z h3|hex[3]~2_combout $end
$var wire 1 [ h3|hex[2]~3_combout $end
$var wire 1 \ h3|hex[1]~4_combout $end
$var wire 1 ] h3|hex[0]~5_combout $end
$var wire 1 ^ h3|hex [0] $end
$var wire 1 _ h3|hex [1] $end
$var wire 1 ` h3|hex [2] $end
$var wire 1 a h3|hex [3] $end
$var wire 1 b h3|hex [4] $end
$var wire 1 c h3|hex [5] $end
$var wire 1 d h3|hex [6] $end
$var wire 1 e h1|hex [0] $end
$var wire 1 f h1|hex [1] $end
$var wire 1 g h1|hex [2] $end
$var wire 1 h h1|hex [3] $end
$var wire 1 i h1|hex [4] $end
$var wire 1 j h1|hex [5] $end
$var wire 1 k h1|hex [6] $end
$upscope $end
$upscope $end
$enddefinitions $end
#0
$dumpvars
0!
b1000000000 "
1)
0(
0'
0&
0%
0$
0#
10
0/
0.
0-
0,
0+
0*
17
06
05
04
03
02
01
1>
0=
0<
0;
0:
09
08
x?
0@
1A
xB
1C
1D
1E
1F
0G
0H
0I
0J
0K
0L
0M
0N
0O
0P
0Q
0R
0S
0T
0U
0V
0W
0X
0Y
0Z
0[
0\
0]
1d
zc
zb
za
z`
z_
z^
1k
zj
zi
zh
zg
zf
ze
$end
#40000
1!
1G
0?
#80000
0!
0G
1?
#100000
b1000010000 "
b1000011000 "
b1000011010 "
1T
1V
1J
0?
0d
1Z
1N
1O
1P
1S
00
1-
16
15
14
11
#120000
1!
1G
1?
#140000
b1000001010 "
b1000000010 "
b1000000000 "
0T
0V
0J
0?
1d
0Z
0N
0O
0P
0S
10
0-
06
05
04
01
#160000
0!
0G
1?
#180000
b1000100000 "
b1000100100 "
b1000100101 "
1U
1W
1M
0?
0d
1Y
1\
0k
1N
1Q
00
1.
1+
07
16
13
#200000
1!
1G
1?
#220000
b1000000101 "
b1000000001 "
b1000000000 "
0U
0W
0M
0?
1d
0Y
0\
1k
0N
0Q
10
0.
0+
17
06
03
#240000
0!
0G
1?
#260000
b1000010000 "
b1000011000 "
b1000111000 "
b1000111100 "
1W
1V
1J
1M
0?
1[
1\
0k
1N
1O
1,
1+
07
16
15
#280000
1!
1G
1?
#300000
b111100 "
b101100 "
b100100 "
b100 "
b0 "
0W
0V
0J
0M
0F
0?
0[
0\
1k
0N
0O
0,
0+
17
06
05
#320000
0!
0G
1?
#340000
b10000 "
1J
0?
1N
1O
1P
1S
16
15
14
11
#360000
1!
1G
1?
#380000
b0 "
0J
0?
0N
0O
0P
0S
06
05
04
01
#400000
0!
0G
1?
#420000
b100000 "
1M
0?
0k
1N
1Q
07
16
13
#440000
1!
1G
1?
#460000
b0 "
0M
0?
1k
0N
0Q
17
06
03
#480000
0!
0G
1?
#500000
b10000 "
b110000 "
1J
1M
0?
0k
1N
1O
07
16
15
#520000
1!
1G
1?
#540000
b100000 "
b0 "
0J
0M
0?
1k
0N
0O
17
06
05
#560000
0!
0G
1?
#580000
b1000000 "
1K
0?
0k
1O
1P
1S
07
15
14
11
#600000
1!
1G
1?
#620000
b0 "
0K
0?
1k
0O
0P
0S
17
05
04
01
#640000
0!
0G
1?
#680000
1!
1G
0?
#720000
0!
0G
1?
#760000
1!
1G
0?
#800000
0!
0G
1?
#840000
1!
1G
0?
#880000
0!
0G
1?
#920000
1!
1G
0?
#960000
0!
0G
1?
