lab6/lab6part1/simulation/qsim/lab6part1.msim.vcd
$comment
	File created using the following command:
		vcd file lab6part1.msim.vcd -direction
$end
$date
	Wed Sep 21 11:32:43 2022
$end
$version
	ModelSim Version 10.1d
$end
$timescale
	1ps
$end
$scope module lab6part1_vlg_vec_tst $end
$var reg 1 ! clock $end
$var reg 1 " key0 $end
$var reg 8 # sw [7:0] $end
$var wire 1 $ c_out $end
$var wire 1 % led [7] $end
$var wire 1 & led [6] $end
$var wire 1 ' led [5] $end
$var wire 1 ( led [4] $end
$var wire 1 ) led [3] $end
$var wire 1 * led [2] $end
$var wire 1 + led [1] $end
$var wire 1 , led [0] $end
$var wire 1 - oflow $end
$var wire 1 . sampler $end
$scope module i1 $end
$var wire 1 / gnd $end
$var wire 1 0 vcc $end
$var wire 1 1 unknown $end
$var tri1 1 2 devclrn $end
$var tri1 1 3 devpor $end
$var tri1 1 4 devoe $end
$var wire 1 5 clock~input_o $end
$var wire 1 6 sw[3]~input_o $end
$var wire 1 7 ~QUARTUS_CREATED_GND~I_combout $end
$var wire 1 8 clock~inputCLKENA0_outclk $end
$var wire 1 9 sw[0]~input_o $end
$var wire 1 : u0|Add0~1_sumout $end
$var wire 1 ; key0~input_o $end
$var wire 1 < sw[1]~input_o $end
$var wire 1 = u0|Add0~2 $end
$var wire 1 > u0|Add0~5_sumout $end
$var wire 1 ? sw[2]~input_o $end
$var wire 1 @ u0|Add0~6 $end
$var wire 1 A u0|Add0~9_sumout $end
$var wire 1 B u0|Add0~10 $end
$var wire 1 C u0|Add0~13_sumout $end
$var wire 1 D sw[4]~input_o $end
$var wire 1 E u0|Add0~14 $end
$var wire 1 F u0|Add0~17_sumout $end
$var wire 1 G sw[5]~input_o $end
$var wire 1 H u0|Add0~18 $end
$var wire 1 I u0|Add0~21_sumout $end
$var wire 1 J sw[6]~input_o $end
$var wire 1 K u0|Add0~22 $end
$var wire 1 L u0|Add0~25_sumout $end
$var wire 1 M sw[7]~input_o $end
$var wire 1 N u0|Add0~26 $end
$var wire 1 O u0|Add0~29_sumout $end
$var wire 1 P u0|Add0~30 $end
$var wire 1 Q u0|Add0~33_sumout $end
$var wire 1 R u0|overflow~0_combout $end
$var wire 1 S u0|sum [8] $end
$var wire 1 T u0|sum [7] $end
$var wire 1 U u0|sum [6] $end
$var wire 1 V u0|sum [5] $end
$var wire 1 W u0|sum [4] $end
$var wire 1 X u0|sum [3] $end
$var wire 1 Y u0|sum [2] $end
$var wire 1 Z u0|sum [1] $end
$var wire 1 [ u0|sum [0] $end
$upscope $end
$upscope $end
$enddefinitions $end
#0
$dumpvars
0!
1"
b1111111 #
0$
0,
0+
0*
0)
0(
0'
0&
0%
1-
x.
0/
10
x1
12
13
14
05
16
07
08
19
1:
1;
1<
0=
1>
1?
0@
1A
0B
1C
1D
0E
1F
1G
0H
1I
1J
0K
1L
0M
0N
0O
0P
0Q
0R
0[
0Z
0Y
0X
0W
0V
0U
0T
0S
$end
#10000
1!
15
18
0.
1U
1V
1W
1X
1Y
1Z
1[
1N
0L
1K
0I
1H
0F
1E
0C
1B
0A
1@
0>
1=
0:
1&
1'
1(
1)
1*
1+
1,
1O
1L
1I
1F
1C
1A
1>
#20000
0!
05
08
1.
#30000
b111111 #
b11111 #
b1111 #
b111 #
b11 #
b1 #
b0 #
1!
09
0<
0?
06
0D
0G
0J
15
18
0.
0=
1:
0>
0A
0C
0F
0I
0L
0@
1>
0B
1A
0E
1C
0H
1F
0K
1I
0N
1L
0O
1T
0[
1O
1R
0:
1%
0,
0-
#40000
0!
05
08
1.
#50000
1!
15
18
0.
#60000
0!
05
08
1.
#70000
1!
15
18
0.
#80000
0!
05
08
1.
#90000
1!
15
18
0.
#100000
0!
05
08
1.
#110000
1!
15
18
0.
#120000
0!
05
08
1.
#130000
1!
15
18
0.
#140000
0!
05
08
1.
#150000
1!
15
18
0.
#160000
0!
05
08
1.
#170000
1!
15
18
0.
#180000
0!
05
08
1.
#190000
1!
15
18
0.
#200000
0!
05
08
1.
#210000
1!
15
18
0.
#220000
0!
05
08
1.
#230000
1!
15
18
0.
#240000
0!
05
08
1.
#250000
1!
15
18
0.
#260000
0!
05
08
1.
#270000
1!
15
18
0.
#280000
0!
05
08
1.
#290000
1!
15
18
0.
#300000
0!
05
08
1.
#310000
1!
15
18
0.
#320000
0!
05
08
1.
#330000
1!
15
18
0.
#340000
0!
05
08
1.
#350000
1!
15
18
0.
#360000
0!
05
08
1.
#370000
1!
15
18
0.
#380000
0!
05
08
1.
#390000
1!
15
18
0.
#400000
0!
05
08
1.
#410000
1!
15
18
0.
#420000
0!
05
08
1.
#430000
1!
15
18
0.
#440000
0!
05
08
1.
#450000
1!
15
18
0.
#460000
0!
05
08
1.
#470000
1!
15
18
0.
#480000
0!
05
08
1.
#490000
1!
15
18
0.
#500000
0!
05
08
1.
#510000
1!
15
18
0.
#520000
0!
05
08
1.
#530000
1!
15
18
0.
#540000
0!
05
08
1.
#550000
1!
15
18
0.
#560000
0!
05
08
1.
#570000
1!
15
18
0.
#580000
0!
05
08
1.
#590000
1!
15
18
0.
#600000
0!
05
08
1.
#610000
1!
15
18
0.
#620000
0!
05
08
1.
#630000
1!
15
18
0.
#640000
0!
05
08
1.
#650000
1!
15
18
0.
#660000
0!
05
08
1.
#670000
1!
15
18
0.
#680000
0!
05
08
1.
#690000
1!
15
18
0.
#700000
0!
05
08
1.
#710000
1!
15
18
0.
#720000
0!
05
08
1.
#730000
1!
15
18
0.
#740000
0!
05
08
1.
#750000
1!
15
18
0.
#760000
0!
05
08
1.
#770000
1!
15
18
0.
#780000
0!
05
08
1.
#790000
1!
15
18
0.
#800000
0!
05
08
1.
#810000
1!
15
18
0.
#820000
0!
05
08
1.
#830000
1!
15
18
0.
#840000
0!
05
08
1.
#850000
1!
15
18
0.
#860000
0!
05
08
1.
#870000
1!
15
18
0.
#880000
0!
05
08
1.
#890000
1!
15
18
0.
#900000
0!
05
08
1.
#910000
1!
15
18
0.
#920000
0!
05
08
1.
#930000
1!
15
18
0.
#940000
0!
05
08
1.
#950000
1!
15
18
0.
#960000
0!
05
08
1.
#970000
1!
15
18
0.
#980000
0!
05
08
1.
#990000
1!
15
18
0.
