lab2/part5/simulation/qsim/lab2part5.msim.vcd
$comment
	File created using the following command:
		vcd file lab2part5.msim.vcd -direction
$end
$date
	Sun Aug 14 22:31:41 2022
$end
$version
	ModelSim Version 10.1d
$end
$timescale
	1ps
$end
$scope module lab2part5_vlg_vec_tst $end
$var reg 4 ! a [3:0] $end
$var reg 4 " b [3:0] $end
$var reg 1 # c0 $end
$var wire 1 $ hex0 [0] $end
$var wire 1 % hex0 [1] $end
$var wire 1 & hex0 [2] $end
$var wire 1 ' hex0 [3] $end
$var wire 1 ( hex0 [4] $end
$var wire 1 ) hex0 [5] $end
$var wire 1 * hex0 [6] $end
$var wire 1 + hex1 [0] $end
$var wire 1 , hex1 [1] $end
$var wire 1 - hex1 [2] $end
$var wire 1 . hex1 [3] $end
$var wire 1 / hex1 [4] $end
$var wire 1 0 hex1 [5] $end
$var wire 1 1 hex1 [6] $end
$var wire 1 2 sampler $end
$scope module i1 $end
$var wire 1 3 gnd $end
$var wire 1 4 vcc $end
$var wire 1 5 unknown $end
$var tri1 1 6 devclrn $end
$var tri1 1 7 devpor $end
$var tri1 1 8 devoe $end
$var wire 1 9 a[3]~input_o $end
$var wire 1 : b[2]~input_o $end
$var wire 1 ; a[1]~input_o $end
$var wire 1 < b[0]~input_o $end
$var wire 1 = hex1[6]~output_o $end
$var wire 1 > hex1[5]~output_o $end
$var wire 1 ? hex1[4]~output_o $end
$var wire 1 @ hex1[3]~output_o $end
$var wire 1 A hex1[2]~output_o $end
$var wire 1 B hex1[1]~output_o $end
$var wire 1 C hex1[0]~output_o $end
$var wire 1 D hex0[6]~output_o $end
$var wire 1 E hex0[5]~output_o $end
$var wire 1 F hex0[4]~output_o $end
$var wire 1 G hex0[3]~output_o $end
$var wire 1 H hex0[2]~output_o $end
$var wire 1 I hex0[1]~output_o $end
$var wire 1 J hex0[0]~output_o $end
$var wire 1 K b[3]~input_o $end
$var wire 1 L a[2]~input_o $end
$var wire 1 M b[1]~input_o $end
$var wire 1 N a[0]~input_o $end
$var wire 1 O c0~input_o $end
$var wire 1 P Add0~1_cout $end
$var wire 1 Q Add0~3 $end
$var wire 1 R Add0~5 $end
$var wire 1 S Add0~7 $end
$var wire 1 T Add0~9 $end
$var wire 1 U Add0~10_combout $end
$var wire 1 V Add0~8_combout $end
$var wire 1 W Add0~4_combout $end
$var wire 1 X Add0~6_combout $end
$var wire 1 Y LessThan0~0_combout $end
$var wire 1 Z Add2~2_combout $end
$var wire 1 [ Add0~2_combout $end
$var wire 1 \ Add2~1_combout $end
$var wire 1 ] Add2~0_combout $end
$var wire 1 ^ u0|hex[6]~0_combout $end
$var wire 1 _ u0|hex[5]~1_combout $end
$var wire 1 ` u0|hex[4]~2_combout $end
$var wire 1 a u0|Equal4~2_combout $end
$var wire 1 b u0|Equal4~3_combout $end
$var wire 1 c u0|hex[1]~3_combout $end
$var wire 1 d u0|hex[0]~4_combout $end
$var wire 1 e u0|hex [0] $end
$var wire 1 f u0|hex [1] $end
$var wire 1 g u0|hex [2] $end
$var wire 1 h u0|hex [3] $end
$var wire 1 i u0|hex [4] $end
$var wire 1 j u0|hex [5] $end
$var wire 1 k u0|hex [6] $end
$upscope $end
$upscope $end
$enddefinitions $end
#0
$dumpvars
b0 !
b0 "
1#
1*
1)
1(
1'
0&
0%
1$
11
00
0/
0.
0-
0,
0+
x2
03
14
x5
16
17
18
09
0:
0;
0<
1=
0>
0?
0@
0A
0B
0C
1D
1E
1F
1G
0H
0I
1J
0K
0L
0M
0N
1O
1P
1Q
0R
1S
0T
0U
0V
0W
0X
0Y
0Z
1[
1\
1]
1^
1_
1`
0a
0b
0c
1d
zk
zj
zi
1h
zg
zf
ze
$end
#50000
b100 !
b100 "
b110 "
b111 "
0#
1<
1M
1:
1L
0O
02
0Q
0[
1W
0S
0P
1R
0W
1a
1Z
1V
1Q
1[
0d
0h
0`
0_
1X
0a
0]
0Z
0R
1W
0J
0G
0F
0E
0$
0'
0(
0)
1`
1_
0^
1]
0\
0X
1F
1E
0D
1(
1)
0*
1Y
0_
1\
1C
1@
1?
1>
0E
1+
1.
1/
10
0)
1c
1I
1%
1d
0c
1h
1_
1^
1J
0I
1G
1E
1D
1$
0%
1'
1)
1*
#100000
1#
1O
12
1P
0Q
0[
1R
0W
0d
0h
0`
0_
1X
0]
0J
0G
0F
0E
0$
0'
0(
0)
0Y
1a
1]
1Z
0C
0@
0?
0>
0+
0.
0/
00
1Y
0^
1C
1@
1?
1>
0D
1+
1.
1/
10
0*
1b
1_
1H
1E
1&
1)
#150000
b1100 !
b1101 !
b1111 "
b1001 !
b1011 "
b1001 "
0M
0:
1K
1N
0L
19
02
0R
1W
1S
1T
1[
0X
0a
0\
0Z
0V
1U
0b
1`
0]
1\
0H
1F
0&
1(
1c
0_
1I
0E
1%
0)
0c
0I
0%
#200000
0#
0O
12
0P
0[
0`
0F
0(
#250000
b1000 !
b1 "
b101 "
1:
0K
0N
02
1X
0T
1V
1Q
1[
1]
0\
0U
0W
1`
1a
1\
1Z
1F
1(
1c
1I
1%
0c
1_
0I
1E
0%
1)
#300000
1#
1O
12
1P
0Q
0[
1W
1b
0`
0a
0\
0Z
1H
0F
1&
0(
0b
1d
1h
1`
0_
0H
1J
1G
1F
0E
0&
1$
1'
1(
0)
#350000
b1010 !
b10 !
b1 "
0:
1;
09
02
0X
1R
0W
0V
1\
1X
0Y
0\
0C
0@
0?
0>
0+
0.
0/
00
0d
0h
0`
1^
0J
0G
0F
1D
0$
0'
0(
1*
1d
1h
1`
0^
1J
1G
1F
0D
1$
1'
1(
0*
#400000
0#
0O
12
0P
1Q
1[
0R
1W
0d
1c
0h
0X
1Z
0J
1I
0G
0$
1%
0'
1a
1\
0c
1h
1_
1^
0I
1G
1E
1D
0%
1'
1)
1*
0h
0^
0G
0D
0'
0*
#450000
b11 !
b1 !
b1001 !
b101 "
1:
1N
0;
19
02
1X
0Q
0[
0W
1V
1W
1Y
1b
0`
0a
0\
0Z
1C
1@
1?
1>
1H
0F
1+
1.
1/
10
1&
0(
0b
1d
1h
1`
0_
0H
1J
1G
1F
0E
0&
1$
1'
1(
0)
#500000
1#
1O
12
1P
1[
0d
1c
0h
0J
1I
0G
0$
1%
0'
#530000
b100 "
b1000 !
b0 !
b0 "
0N
09
0<
0:
02
1Q
0V
0X
0W
1a
1\
1Z
0Y
0a
0Z
0C
0@
0?
0>
0+
0.
0/
00
0c
1_
0I
1E
0%
1)
1d
1h
1^
1J
1G
1D
1$
1'
1*
#600000
0#
0O
12
0P
0[
0d
0h
0`
0_
0J
0G
0F
0E
0$
0'
0(
0)
#700000
1#
1O
02
1P
1[
1d
1h
1`
1_
1J
1G
1F
1E
1$
1'
1(
1)
#800000
0#
0O
12
0P
0[
0d
0h
0`
0_
0J
0G
0F
0E
0$
0'
0(
0)
#900000
1#
1O
02
1P
1[
1d
1h
1`
1_
1J
1G
1F
1E
1$
1'
1(
1)
