lab4/part2/simulation/qsim/lab4part2.msim.vcd
$comment
	File created using the following command:
		vcd file lab4part2.msim.vcd -direction
$end
$date
	Wed Aug 24 20:38:11 2022
$end
$version
	ModelSim Version 10.1d
$end
$timescale
	1ps
$end
$scope module lab4part2_vlg_vec_tst $end
$var reg 1 ! clear $end
$var reg 1 " enable $end
$var reg 1 # key0 $end
$var wire 1 $ debug [15] $end
$var wire 1 % debug [14] $end
$var wire 1 & debug [13] $end
$var wire 1 ' debug [12] $end
$var wire 1 ( debug [11] $end
$var wire 1 ) debug [10] $end
$var wire 1 * debug [9] $end
$var wire 1 + debug [8] $end
$var wire 1 , debug [7] $end
$var wire 1 - debug [6] $end
$var wire 1 . debug [5] $end
$var wire 1 / debug [4] $end
$var wire 1 0 debug [3] $end
$var wire 1 1 debug [2] $end
$var wire 1 2 debug [1] $end
$var wire 1 3 debug [0] $end
$var wire 1 4 hex0 [0] $end
$var wire 1 5 hex0 [1] $end
$var wire 1 6 hex0 [2] $end
$var wire 1 7 hex0 [3] $end
$var wire 1 8 hex0 [4] $end
$var wire 1 9 hex0 [5] $end
$var wire 1 : hex0 [6] $end
$var wire 1 ; hex1 [0] $end
$var wire 1 < hex1 [1] $end
$var wire 1 = hex1 [2] $end
$var wire 1 > hex1 [3] $end
$var wire 1 ? hex1 [4] $end
$var wire 1 @ hex1 [5] $end
$var wire 1 A hex1 [6] $end
$var wire 1 B hex2 [0] $end
$var wire 1 C hex2 [1] $end
$var wire 1 D hex2 [2] $end
$var wire 1 E hex2 [3] $end
$var wire 1 F hex2 [4] $end
$var wire 1 G hex2 [5] $end
$var wire 1 H hex2 [6] $end
$var wire 1 I hex3 [0] $end
$var wire 1 J hex3 [1] $end
$var wire 1 K hex3 [2] $end
$var wire 1 L hex3 [3] $end
$var wire 1 M hex3 [4] $end
$var wire 1 N hex3 [5] $end
$var wire 1 O hex3 [6] $end
$var wire 1 P sampler $end
$scope module i1 $end
$var wire 1 Q gnd $end
$var wire 1 R vcc $end
$var wire 1 S unknown $end
$var tri1 1 T devclrn $end
$var tri1 1 U devpor $end
$var tri1 1 V devoe $end
$var wire 1 W key0~input_o $end
$var wire 1 X ~QUARTUS_CREATED_GND~I_combout $end
$var wire 1 Y key0~inputCLKENA0_outclk $end
$var wire 1 Z q[0]~1_combout $end
$var wire 1 [ enable~input_o $end
$var wire 1 \ clear~input_o $end
$var wire 1 ] q[15]~0_combout $end
$var wire 1 ^ Add0~1_sumout $end
$var wire 1 _ q[1]~DUPLICATE_q $end
$var wire 1 ` Add0~2 $end
$var wire 1 a Add0~5_sumout $end
$var wire 1 b Add0~6 $end
$var wire 1 c Add0~9_sumout $end
$var wire 1 d Add0~10 $end
$var wire 1 e Add0~13_sumout $end
$var wire 1 f Add0~14 $end
$var wire 1 g Add0~17_sumout $end
$var wire 1 h Add0~18 $end
$var wire 1 i Add0~21_sumout $end
$var wire 1 j Add0~22 $end
$var wire 1 k Add0~25_sumout $end
$var wire 1 l Add0~26 $end
$var wire 1 m Add0~29_sumout $end
$var wire 1 n Add0~30 $end
$var wire 1 o Add0~33_sumout $end
$var wire 1 p Add0~34 $end
$var wire 1 q Add0~37_sumout $end
$var wire 1 r Add0~38 $end
$var wire 1 s Add0~41_sumout $end
$var wire 1 t Add0~42 $end
$var wire 1 u Add0~45_sumout $end
$var wire 1 v Add0~46 $end
$var wire 1 w Add0~49_sumout $end
$var wire 1 x Add0~50 $end
$var wire 1 y Add0~53_sumout $end
$var wire 1 z Add0~54 $end
$var wire 1 { Add0~57_sumout $end
$var wire 1 | h1|hex[5]~0_combout $end
$var wire 1 } h1|hex[4]~1_combout $end
$var wire 1 ~ h1|hex[3]~2_combout $end
$var wire 1 !! h1|hex[2]~3_combout $end
$var wire 1 "! h1|hex[1]~4_combout $end
$var wire 1 #! h1|hex[0]~5_combout $end
$var wire 1 $! h2|hex[5]~0_combout $end
$var wire 1 %! h2|hex[4]~1_combout $end
$var wire 1 &! h2|hex[3]~2_combout $end
$var wire 1 '! h2|hex[2]~3_combout $end
$var wire 1 (! h2|hex[1]~4_combout $end
$var wire 1 )! h2|hex[0]~5_combout $end
$var wire 1 *! q[6]~DUPLICATE_q $end
$var wire 1 +! h3|hex[5]~0_combout $end
$var wire 1 ,! h3|hex[4]~1_combout $end
$var wire 1 -! h3|hex[3]~2_combout $end
$var wire 1 .! h3|hex[2]~3_combout $end
$var wire 1 /! h3|hex[1]~4_combout $end
$var wire 1 0! h3|hex[0]~5_combout $end
$var wire 1 1! q[3]~DUPLICATE_q $end
$var wire 1 2! h4|hex[5]~0_combout $end
$var wire 1 3! h4|hex[4]~1_combout $end
$var wire 1 4! h4|hex[3]~2_combout $end
$var wire 1 5! h4|hex[2]~3_combout $end
$var wire 1 6! h4|hex[1]~4_combout $end
$var wire 1 7! h4|hex[0]~5_combout $end
$var wire 1 8! h2|hex [0] $end
$var wire 1 9! h2|hex [1] $end
$var wire 1 :! h2|hex [2] $end
$var wire 1 ;! h2|hex [3] $end
$var wire 1 <! h2|hex [4] $end
$var wire 1 =! h2|hex [5] $end
$var wire 1 >! h2|hex [6] $end
$var wire 1 ?! h3|hex [0] $end
$var wire 1 @! h3|hex [1] $end
$var wire 1 A! h3|hex [2] $end
$var wire 1 B! h3|hex [3] $end
$var wire 1 C! h3|hex [4] $end
$var wire 1 D! h3|hex [5] $end
$var wire 1 E! h3|hex [6] $end
$var wire 1 F! h4|hex [0] $end
$var wire 1 G! h4|hex [1] $end
$var wire 1 H! h4|hex [2] $end
$var wire 1 I! h4|hex [3] $end
$var wire 1 J! h4|hex [4] $end
$var wire 1 K! h4|hex [5] $end
$var wire 1 L! h4|hex [6] $end
$var wire 1 M! q [15] $end
$var wire 1 N! q [14] $end
$var wire 1 O! q [13] $end
$var wire 1 P! q [12] $end
$var wire 1 Q! q [11] $end
$var wire 1 R! q [10] $end
$var wire 1 S! q [9] $end
$var wire 1 T! q [8] $end
$var wire 1 U! q [7] $end
$var wire 1 V! q [6] $end
$var wire 1 W! q [5] $end
$var wire 1 X! q [4] $end
$var wire 1 Y! q [3] $end
$var wire 1 Z! q [2] $end
$var wire 1 [! q [1] $end
$var wire 1 \! q [0] $end
$var wire 1 ]! h1|hex [0] $end
$var wire 1 ^! h1|hex [1] $end
$var wire 1 _! h1|hex [2] $end
$var wire 1 `! h1|hex [3] $end
$var wire 1 a! h1|hex [4] $end
$var wire 1 b! h1|hex [5] $end
$var wire 1 c! h1|hex [6] $end
$upscope $end
$upscope $end
$enddefinitions $end
#0
$dumpvars
1!
0"
1#
03
02
01
00
0/
0.
0-
0,
0+
0*
0)
0(
0'
0&
0%
0$
1:
09
08
07
06
05
04
1A
0@
0?
0>
0=
0<
0;
1H
0G
0F
0E
0D
0C
0B
1O
0N
0M
0L
0K
0J
0I
xP
0Q
1R
xS
1T
1U
1V
1W
0X
1Y
1Z
0[
1\
1]
0^
0_
0`
0a
0b
0c
0d
0e
0f
0g
0h
0i
0j
0k
0l
0m
0n
0o
0p
0q
0r
0s
0t
0u
0v
0w
0x
0y
0z
0{
0|
0}
0~
0!!
0"!
0#!
0$!
0%!
0&!
0'!
0(!
0)!
0*!
0+!
0,!
0-!
0.!
0/!
00!
01!
02!
03!
04!
05!
06!
07!
1>!
z=!
z<!
z;!
z:!
z9!
z8!
1E!
zD!
zC!
zB!
zA!
z@!
z?!
1L!
zK!
zJ!
zI!
zH!
zG!
zF!
0\!
0[!
0Z!
0Y!
0X!
0W!
0V!
0U!
0T!
0S!
0R!
0Q!
0P!
0O!
0N!
0M!
1c!
zb!
za!
z`!
z_!
z^!
z]!
$end
#1000
0#
0W
0Y
0P
#2000
1#
1W
1Y
1P
#3000
0#
0W
0Y
0P
#4000
1#
1W
1Y
1P
#5000
0#
0W
0Y
0P
#6000
1#
1W
1Y
1P
#7000
0#
0W
0Y
0P
#8000
1#
1W
1Y
1P
#9000
0#
0W
0Y
0P
#10000
1"
1#
1[
1W
1Y
1P
0]
#11000
0#
0W
0Y
0P
1\!
0Z
1^
13
13!
14!
17!
18
17
14
12!
19
#12000
1#
1W
1Y
1P
#13000
0#
0W
0Y
0P
1[!
0\!
1_
1Z
03
12
0L!
03!
04!
15!
07!
0:
08
07
16
04
#14000
1#
1W
1Y
1P
#15000
0#
0W
0Y
0P
1\!
0Z
1`
0^
13
13!
05!
1a
18
06
#16000
1#
1W
1Y
1P
#17000
0#
0W
0Y
0P
0[!
0\!
0_
1Z!
0`
1Z
1b
0a
03
02
11
02!
14!
17!
0b
1a
1c
09
17
14
0c
#18000
1#
1W
1Y
1P
#19000
0#
0W
0Y
0P
1\!
0Z
1^
13
04!
07!
07
04
16!
15
#20000
0!
1#
0\
1W
1Y
1P
1]
0\!
0Z!
1Z
0^
0a
03
01
1L!
12!
03!
06!
1:
19
08
05
02!
09
#21000
0#
0W
0Y
0P
#22000
1#
1W
1Y
1P
#23000
0#
0W
0Y
0P
#24000
1#
1W
1Y
1P
#25000
0#
0W
0Y
0P
#26000
1#
1W
1Y
1P
#27000
0#
0W
0Y
0P
#28000
1#
1W
1Y
1P
#29000
0#
0W
0Y
0P
#30000
1!
1#
1\
1W
1Y
1P
0]
#31000
0#
0W
0Y
0P
1\!
0Z
1^
13
13!
14!
17!
18
17
14
12!
19
#32000
1#
1W
1Y
1P
#33000
0#
0W
0Y
0P
1[!
0\!
1_
1Z
03
12
0L!
03!
04!
15!
07!
0:
08
07
16
04
#34000
1#
1W
1Y
1P
#35000
0#
0W
0Y
0P
1\!
0Z
1`
0^
13
13!
05!
1a
18
06
#36000
1#
1W
1Y
1P
#37000
0#
0W
0Y
0P
0[!
0\!
0_
1Z!
0`
1Z
1b
0a
03
02
11
02!
14!
17!
0b
1a
1c
09
17
14
0c
#38000
1#
1W
1Y
1P
#39000
0#
0W
0Y
0P
1\!
0Z
1^
13
04!
07!
07
04
16!
15
#40000
1#
1W
1Y
1P
#41000
0#
0W
0Y
0P
1[!
0\!
1_
1Z
03
12
03!
08
#42000
1#
1W
1Y
1P
#43000
0#
0W
0Y
0P
1\!
0Z
1`
0^
13
1L!
12!
13!
14!
1b
0a
1:
19
18
17
06!
1c
05
#44000
1#
1W
1Y
1P
#45000
0#
0W
0Y
0P
0[!
11!
0\!
0_
0Z!
1Y!
0`
1Z
0b
1a
1d
0c
03
02
01
10
0L!
02!
03!
04!
0a
0d
1c
1e
0:
09
08
07
0e
#46000
1#
1W
1Y
1P
#47000
0#
0W
0Y
0P
1\!
0Z
1^
13
13!
18
#48000
1#
1W
1Y
1P
#49000
0#
0W
0Y
0P
1[!
0\!
1_
1Z
03
12
03!
14!
08
17
#50000
1#
1W
1Y
1P
#51000
0#
0W
0Y
0P
1\!
0Z
1`
0^
13
04!
16!
17!
1a
07
15
14
#52000
1#
1W
1Y
1P
#53000
0#
0W
0Y
0P
0[!
0\!
0_
1Z!
0`
1Z
1b
0a
03
02
11
1L!
15!
07!
0b
1a
1d
0c
1:
16
04
0d
1c
1e
0e
#54000
1#
1W
1Y
1P
#55000
0#
0W
0Y
0P
1\!
0Z
1^
13
0L!
12!
05!
06!
17!
0:
19
06
05
14
#56000
1#
1W
1Y
1P
#57000
0#
0W
0Y
0P
1[!
0\!
1_
1Z
03
12
02!
15!
16!
07!
09
16
15
04
#58000
1#
1W
1Y
1P
#59000
0#
0W
0Y
0P
1\!
0Z
1`
0^
13
14!
1b
0a
17
1d
0c
1e
#60000
1#
1W
1Y
1P
#61000
0#
0W
0Y
0P
0[!
01!
0\!
0_
0Z!
0Y!
1X!
0`
1Z
0b
1a
0d
1c
1f
0e
03
02
01
00
1/
1L!
04!
05!
06!
1+!
1,!
1-!
10!
0a
0c
0f
1e
1g
1:
07
06
05
1@
1?
1>
1;
0g
#62000
1#
1W
1Y
1P
#63000
0#
0W
0Y
0P
1\!
0Z
1^
13
13!
14!
17!
18
17
14
12!
19
#64000
1#
1W
1Y
1P
#65000
0#
0W
0Y
0P
1[!
0\!
1_
1Z
03
12
0L!
03!
04!
15!
07!
0:
08
07
16
04
#66000
1#
1W
1Y
1P
#67000
0#
0W
0Y
0P
1\!
0Z
1`
0^
13
13!
05!
1a
18
06
#68000
1#
1W
1Y
1P
#69000
0#
0W
0Y
0P
0[!
0\!
0_
1Z!
0`
1Z
1b
0a
03
02
11
02!
14!
17!
0b
1a
1c
09
17
14
0c
#70000
1#
1W
1Y
1P
#71000
0#
0W
0Y
0P
1\!
0Z
1^
13
04!
07!
07
04
16!
15
#72000
1#
1W
1Y
1P
#73000
0#
0W
0Y
0P
1[!
0\!
1_
1Z
03
12
03!
08
#74000
1#
1W
1Y
1P
#75000
0#
0W
0Y
0P
1\!
0Z
1`
0^
13
1L!
12!
13!
14!
1b
0a
1:
19
18
17
06!
1c
05
#76000
1#
1W
1Y
1P
#77000
0#
0W
0Y
0P
0[!
11!
0\!
0_
0Z!
1Y!
0`
1Z
0b
1a
1d
0c
03
02
01
10
0L!
02!
03!
04!
0a
0d
1c
1f
0e
0:
09
08
07
0f
1e
1g
0g
#78000
1#
1W
1Y
1P
#79000
0#
0W
0Y
0P
1\!
0Z
1^
13
13!
18
#80000
1#
1W
1Y
1P
#81000
0#
0W
0Y
0P
1[!
0\!
1_
1Z
03
12
03!
14!
08
17
#82000
1#
1W
1Y
1P
#83000
0#
0W
0Y
0P
1\!
0Z
1`
0^
13
04!
16!
17!
1a
07
15
14
#84000
1#
1W
1Y
1P
#85000
0#
0W
0Y
0P
0[!
0\!
0_
1Z!
0`
1Z
1b
0a
03
02
11
1L!
15!
07!
0b
1a
1d
0c
1:
16
04
0d
1c
1f
0e
0f
1e
1g
0g
#86000
1#
1W
1Y
1P
#87000
0#
0W
0Y
0P
1\!
0Z
1^
13
0L!
12!
05!
06!
17!
0:
19
06
05
14
#88000
1#
1W
1Y
1P
#89000
0#
0W
0Y
0P
1[!
0\!
1_
1Z
03
12
02!
15!
16!
07!
09
16
15
04
#90000
1#
1W
1Y
1P
#91000
0#
0W
0Y
0P
1\!
0Z
1`
0^
13
14!
1b
0a
17
1d
0c
1f
0e
1g
#92000
1#
1W
1Y
1P
#93000
0#
0W
0Y
0P
0[!
01!
0\!
0_
0Z!
0Y!
0X!
1W!
0`
1Z
0b
1a
0d
1c
0f
1e
1h
0g
03
02
01
00
0/
1.
1L!
04!
05!
06!
0E!
0,!
0-!
1.!
00!
0a
0c
0e
0h
1g
1i
1:
07
06
05
0A
0?
0>
1=
0;
0i
#94000
1#
1W
1Y
1P
#95000
0#
0W
0Y
0P
1\!
0Z
1^
13
13!
14!
17!
18
17
14
12!
19
#96000
1#
1W
1Y
1P
#97000
0#
0W
0Y
0P
1[!
0\!
1_
1Z
03
12
0L!
03!
04!
15!
07!
0:
08
07
16
04
#98000
1#
1W
1Y
1P
#99000
0#
0W
0Y
0P
1\!
0Z
1`
0^
13
13!
05!
1a
18
06
#100000
1#
1W
1Y
1P
#101000
0#
0W
0Y
0P
0[!
0\!
0_
1Z!
0`
1Z
1b
0a
03
02
11
02!
14!
17!
0b
1a
1c
09
17
14
0c
#102000
1#
1W
1Y
1P
#103000
0#
0W
0Y
0P
1\!
0Z
1^
13
04!
07!
07
04
16!
15
#104000
1#
1W
1Y
1P
#105000
0#
0W
0Y
0P
1[!
0\!
1_
1Z
03
12
03!
08
#106000
1#
1W
1Y
1P
#107000
0#
0W
0Y
0P
1\!
0Z
1`
0^
13
1L!
12!
13!
14!
1b
0a
1:
19
18
17
06!
1c
05
#108000
1#
1W
1Y
1P
#109000
0#
0W
0Y
0P
0[!
11!
0\!
0_
0Z!
1Y!
0`
1Z
0b
1a
1d
0c
03
02
01
10
0L!
02!
03!
04!
0a
0d
1c
1e
0:
09
08
07
0e
#110000
1#
1W
1Y
1P
#111000
0#
0W
0Y
0P
1\!
0Z
1^
13
13!
18
#112000
1#
1W
1Y
1P
#113000
0#
0W
0Y
0P
1[!
0\!
1_
1Z
03
12
03!
14!
08
17
#114000
1#
1W
1Y
1P
#115000
0#
0W
0Y
0P
1\!
0Z
1`
0^
13
04!
16!
17!
1a
07
15
14
#116000
1#
1W
1Y
1P
#117000
0#
0W
0Y
0P
0[!
0\!
0_
1Z!
0`
1Z
1b
0a
03
02
11
1L!
15!
07!
0b
1a
1d
0c
1:
16
04
0d
1c
1e
0e
#118000
1#
1W
1Y
1P
#119000
0#
0W
0Y
0P
1\!
0Z
1^
13
0L!
12!
05!
06!
17!
0:
19
06
05
14
#120000
1#
1W
1Y
1P
#121000
0#
0W
0Y
0P
1[!
0\!
1_
1Z
03
12
02!
15!
16!
07!
09
16
15
04
#122000
1#
1W
1Y
1P
#123000
0#
0W
0Y
0P
1\!
0Z
1`
0^
13
14!
1b
0a
17
1d
0c
1e
#124000
1#
1W
1Y
1P
#125000
0#
0W
0Y
0P
0[!
01!
0\!
0_
0Z!
0Y!
1X!
0`
1Z
0b
1a
0d
1c
1f
0e
03
02
01
00
1/
1L!
04!
05!
06!
1,!
0.!
0a
0c
0f
1e
1h
0g
1:
07
06
05
1?
0=
0h
1g
1i
0i
#126000
1#
1W
1Y
1P
#127000
0#
0W
0Y
0P
1\!
0Z
1^
13
13!
14!
17!
18
17
14
12!
19
#128000
1#
1W
1Y
1P
#129000
0#
0W
0Y
0P
1[!
0\!
1_
1Z
03
12
0L!
03!
04!
15!
07!
0:
08
07
16
04
#130000
1#
1W
1Y
1P
#131000
0#
0W
0Y
0P
1\!
0Z
1`
0^
13
13!
05!
1a
18
06
#132000
1#
1W
1Y
1P
#133000
0#
0W
0Y
0P
0[!
0\!
0_
1Z!
0`
1Z
1b
0a
03
02
11
02!
14!
17!
0b
1a
1c
09
17
14
0c
#134000
1#
1W
1Y
1P
#135000
0#
0W
0Y
0P
1\!
0Z
1^
13
04!
07!
07
04
16!
15
#136000
1#
1W
1Y
1P
#137000
0#
0W
0Y
0P
1[!
0\!
1_
1Z
03
12
03!
08
#138000
1#
1W
1Y
1P
#139000
0#
0W
0Y
0P
1\!
0Z
1`
0^
13
1L!
12!
13!
14!
1b
0a
1:
19
18
17
06!
1c
05
#140000
1#
1W
1Y
1P
#141000
0#
0W
0Y
0P
0[!
11!
0\!
0_
0Z!
1Y!
0`
1Z
0b
1a
1d
0c
03
02
01
10
0L!
02!
03!
04!
0a
0d
1c
1f
0e
0:
09
08
07
0f
1e
1h
0g
0h
1g
1i
0i
#142000
1#
1W
1Y
1P
#143000
0#
0W
0Y
0P
1\!
0Z
1^
13
13!
18
#144000
1#
1W
1Y
1P
#145000
0#
0W
0Y
0P
1[!
0\!
1_
1Z
03
12
03!
14!
08
17
#146000
1#
1W
1Y
1P
#147000
0#
0W
0Y
0P
1\!
0Z
1`
0^
13
04!
16!
17!
1a
07
15
14
#148000
1#
1W
1Y
1P
#149000
0#
0W
0Y
0P
0[!
0\!
0_
1Z!
0`
1Z
1b
0a
03
02
11
1L!
15!
07!
0b
1a
1d
0c
1:
16
04
0d
1c
1f
0e
0f
1e
1h
0g
0h
1g
1i
0i
#150000
1#
1W
1Y
1P
#151000
0#
0W
0Y
0P
1\!
0Z
1^
13
0L!
12!
05!
06!
17!
0:
19
06
05
14
#152000
1#
1W
1Y
1P
#153000
0#
0W
0Y
0P
1[!
0\!
1_
1Z
03
12
02!
15!
16!
07!
09
16
15
04
#154000
1#
1W
1Y
1P
#155000
0#
0W
0Y
0P
1\!
0Z
1`
0^
13
14!
1b
0a
17
1d
0c
1f
0e
1h
0g
1i
#156000
1#
1W
1Y
1P
#157000
0#
0W
0Y
0P
0[!
1*!
01!
0\!
0_
0Z!
0Y!
0X!
0W!
1V!
0`
1Z
0b
1a
0d
1c
0f
1e
0h
1g
1j
0i
03
02
01
00
0/
0.
1-
0+!
1-!
10!
1L!
04!
05!
06!
0a
0c
0e
0g
0j
1i
1k
0@
1>
1;
1:
07
06
05
0k
#158000
1#
1W
1Y
1P
#159000
0#
0W
0Y
0P
1\!
0Z
1^
13
13!
14!
17!
18
17
14
12!
19
#160000
1#
1W
1Y
1P
#161000
0#
0W
0Y
0P
1[!
0\!
1_
1Z
03
12
0L!
03!
04!
15!
07!
0:
08
07
16
04
#162000
1#
1W
1Y
1P
#163000
0#
0W
0Y
0P
1\!
0Z
1`
0^
13
13!
05!
1a
18
06
#164000
1#
1W
1Y
1P
#165000
0#
0W
0Y
0P
0[!
0\!
0_
1Z!
0`
1Z
1b
0a
03
02
11
02!
14!
17!
0b
1a
1c
09
17
14
0c
#166000
1#
1W
1Y
1P
#167000
0#
0W
0Y
0P
1\!
0Z
1^
13
04!
07!
07
04
16!
15
#168000
1#
1W
1Y
1P
#169000
0#
0W
0Y
0P
1[!
0\!
1_
1Z
03
12
03!
08
#170000
1#
1W
1Y
1P
#171000
0#
0W
0Y
0P
1\!
0Z
1`
0^
13
1L!
12!
13!
14!
1b
0a
1:
19
18
17
06!
1c
05
#172000
1#
1W
1Y
1P
#173000
0#
0W
0Y
0P
0[!
11!
0\!
0_
0Z!
1Y!
0`
1Z
0b
1a
1d
0c
03
02
01
10
0L!
02!
03!
04!
0a
0d
1c
1e
0:
09
08
07
0e
#174000
1#
1W
1Y
1P
#175000
0#
0W
0Y
0P
1\!
0Z
1^
13
13!
18
#176000
1#
1W
1Y
1P
#177000
0#
0W
0Y
0P
1[!
0\!
1_
1Z
03
12
03!
14!
08
17
#178000
1#
1W
1Y
1P
#179000
0#
0W
0Y
0P
1\!
0Z
1`
0^
13
04!
16!
17!
1a
07
15
14
#180000
1#
1W
1Y
1P
#181000
0#
0W
0Y
0P
0[!
0\!
0_
1Z!
0`
1Z
1b
0a
03
02
11
1L!
15!
07!
0b
1a
1d
0c
1:
16
04
0d
1c
1e
0e
#182000
1#
1W
1Y
1P
#183000
0#
0W
0Y
0P
1\!
0Z
1^
13
0L!
12!
05!
06!
17!
0:
19
06
05
14
#184000
1#
1W
1Y
1P
#185000
0#
0W
0Y
0P
1[!
0\!
1_
1Z
03
12
02!
15!
16!
07!
09
16
15
04
#186000
1#
1W
1Y
1P
#187000
0#
0W
0Y
0P
1\!
0Z
1`
0^
13
14!
1b
0a
17
1d
0c
1e
#188000
1#
1W
1Y
1P
#189000
0#
0W
0Y
0P
0[!
01!
0\!
0_
0Z!
0Y!
1X!
0`
1Z
0b
1a
0d
1c
1f
0e
03
02
01
00
1/
1L!
04!
05!
06!
0-!
1/!
00!
0a
0c
0f
1e
1g
1:
07
06
05
0>
1<
0;
0g
#190000
1#
1W
1Y
1P
#191000
0#
0W
0Y
0P
1\!
0Z
1^
13
13!
14!
17!
18
17
14
12!
19
#192000
1#
1W
1Y
1P
#193000
0#
0W
0Y
0P
1[!
0\!
1_
1Z
03
12
0L!
03!
04!
15!
07!
0:
08
07
16
04
#194000
1#
1W
1Y
1P
#195000
0#
0W
0Y
0P
1\!
0Z
1`
0^
13
13!
05!
1a
18
06
#196000
1#
1W
1Y
1P
#197000
0#
0W
0Y
0P
0[!
0\!
0_
1Z!
0`
1Z
1b
0a
03
02
11
02!
14!
17!
0b
1a
1c
09
17
14
0c
#198000
1#
1W
1Y
1P
#199000
0#
0W
0Y
0P
1\!
0Z
1^
13
04!
07!
07
04
16!
15
#200000
1#
1W
1Y
1P
#201000
0#
0W
0Y
0P
1[!
0\!
1_
1Z
03
12
03!
08
#202000
1#
1W
1Y
1P
#203000
0#
0W
0Y
0P
1\!
0Z
1`
0^
13
1L!
12!
13!
14!
1b
0a
1:
19
18
17
06!
1c
05
#204000
1#
1W
1Y
1P
#205000
0#
0W
0Y
0P
0[!
11!
0\!
0_
0Z!
1Y!
0`
1Z
0b
1a
1d
0c
03
02
01
10
0L!
02!
03!
04!
0a
0d
1c
1f
0e
0:
09
08
07
0f
1e
1g
0g
#206000
1#
1W
1Y
1P
#207000
0#
0W
0Y
0P
1\!
0Z
1^
13
13!
18
#208000
1#
1W
1Y
1P
#209000
0#
0W
0Y
0P
1[!
0\!
1_
1Z
03
12
03!
14!
08
17
#210000
1#
1W
1Y
1P
#211000
0#
0W
0Y
0P
1\!
0Z
1`
0^
13
04!
16!
17!
1a
07
15
14
#212000
1#
1W
1Y
1P
#213000
0#
0W
0Y
0P
0[!
0\!
0_
1Z!
0`
1Z
1b
0a
03
02
11
1L!
15!
07!
0b
1a
1d
0c
1:
16
04
0d
1c
1f
0e
0f
1e
1g
0g
#214000
1#
1W
1Y
1P
#215000
0#
0W
0Y
0P
1\!
0Z
1^
13
0L!
12!
05!
06!
17!
0:
19
06
05
14
#216000
1#
1W
1Y
1P
#217000
0#
0W
0Y
0P
1[!
0\!
1_
1Z
03
12
02!
15!
16!
07!
09
16
15
04
#218000
1#
1W
1Y
1P
#219000
0#
0W
0Y
0P
1\!
0Z
1`
0^
13
14!
1b
0a
17
1d
0c
1f
0e
1g
#220000
1#
1W
1Y
1P
#221000
0#
0W
0Y
0P
0[!
01!
0\!
0_
0Z!
0Y!
0X!
1W!
0`
1Z
0b
1a
0d
1c
0f
1e
1h
0g
03
02
01
00
0/
1.
1L!
04!
05!
06!
0,!
0a
0c
0e
0h
1g
1j
0i
1:
07
06
05
0?
0j
1i
1k
0k
#222000
1#
1W
1Y
1P
#223000
0#
0W
0Y
0P
1\!
0Z
1^
13
13!
14!
17!
18
17
14
12!
19
#224000
1#
1W
1Y
1P
#225000
0#
0W
0Y
0P
1[!
0\!
1_
1Z
03
12
0L!
03!
04!
15!
07!
0:
08
07
16
04
#226000
1#
1W
1Y
1P
#227000
0#
0W
0Y
0P
1\!
0Z
1`
0^
13
13!
05!
1a
18
06
#228000
1#
1W
1Y
1P
#229000
0#
0W
0Y
0P
0[!
0\!
0_
1Z!
0`
1Z
1b
0a
03
02
11
02!
14!
17!
0b
1a
1c
09
17
14
0c
#230000
1#
1W
1Y
1P
#231000
0#
0W
0Y
0P
1\!
0Z
1^
13
04!
07!
07
04
16!
15
#232000
1#
1W
1Y
1P
#233000
0#
0W
0Y
0P
1[!
0\!
1_
1Z
03
12
03!
08
#234000
1#
1W
1Y
1P
#235000
0#
0W
0Y
0P
1\!
0Z
1`
0^
13
1L!
12!
13!
14!
1b
0a
1:
19
18
17
06!
1c
05
#236000
1#
1W
1Y
1P
#237000
0#
0W
0Y
0P
0[!
11!
0\!
0_
0Z!
1Y!
0`
1Z
0b
1a
1d
0c
03
02
01
10
0L!
02!
03!
04!
0a
0d
1c
1e
0:
09
08
07
0e
#238000
1#
1W
1Y
1P
#239000
0#
0W
0Y
0P
1\!
0Z
1^
13
13!
18
#240000
1#
1W
1Y
1P
#241000
0#
0W
0Y
0P
1[!
0\!
1_
1Z
03
12
03!
14!
08
17
#242000
1#
1W
1Y
1P
#243000
0#
0W
0Y
0P
1\!
0Z
1`
0^
13
04!
16!
17!
1a
07
15
14
#244000
1#
1W
1Y
1P
#245000
0#
0W
0Y
0P
0[!
0\!
0_
1Z!
0`
1Z
1b
0a
03
02
11
1L!
15!
07!
0b
1a
1d
0c
1:
16
04
0d
1c
1e
0e
#246000
1#
1W
1Y
1P
#247000
0#
0W
0Y
0P
1\!
0Z
1^
13
0L!
12!
05!
06!
17!
0:
19
06
05
14
#248000
1#
1W
1Y
1P
#249000
0#
0W
0Y
0P
1[!
0\!
1_
1Z
03
12
02!
15!
16!
07!
09
16
15
04
#250000
1#
1W
1Y
1P
#251000
0#
0W
0Y
0P
1\!
0Z
1`
0^
13
14!
1b
0a
17
1d
0c
1e
#252000
1#
1W
1Y
1P
#253000
0#
0W
0Y
0P
0[!
01!
0\!
0_
0Z!
0Y!
1X!
0`
1Z
0b
1a
0d
1c
1f
0e
03
02
01
00
1/
1L!
04!
05!
06!
1E!
1+!
1,!
1-!
0/!
0a
0c
0f
1e
1h
0g
1:
07
06
05
1A
1@
1?
1>
0<
0h
1g
1j
0i
0j
1i
1k
0k
#254000
1#
1W
1Y
1P
#255000
0#
0W
0Y
0P
1\!
0Z
1^
13
13!
14!
17!
18
17
14
12!
19
#256000
1#
1W
1Y
1P
#257000
0#
0W
0Y
0P
1[!
0\!
1_
1Z
03
12
0L!
03!
04!
15!
07!
0:
08
07
16
04
#258000
1#
1W
1Y
1P
#259000
0#
0W
0Y
0P
1\!
0Z
1`
0^
13
13!
05!
1a
18
06
#260000
1#
1W
1Y
1P
#261000
0#
0W
0Y
0P
0[!
0\!
0_
1Z!
0`
1Z
1b
0a
03
02
11
02!
14!
17!
0b
1a
1c
09
17
14
0c
#262000
1#
1W
1Y
1P
#263000
0#
0W
0Y
0P
1\!
0Z
1^
13
04!
07!
07
04
16!
15
#264000
1#
1W
1Y
1P
#265000
0#
0W
0Y
0P
1[!
0\!
1_
1Z
03
12
03!
08
#266000
1#
1W
1Y
1P
#267000
0#
0W
0Y
0P
1\!
0Z
1`
0^
13
1L!
12!
13!
14!
1b
0a
1:
19
18
17
06!
1c
05
#268000
1#
1W
1Y
1P
#269000
0#
0W
0Y
0P
0[!
11!
0\!
0_
0Z!
1Y!
0`
1Z
0b
1a
1d
0c
03
02
01
10
0L!
02!
03!
04!
0a
0d
1c
1f
0e
0:
09
08
07
0f
1e
1h
0g
0h
1g
1j
0i
0j
1i
1k
0k
#270000
1#
1W
1Y
1P
#271000
0#
0W
0Y
0P
1\!
0Z
1^
13
13!
18
#272000
1#
1W
1Y
1P
#273000
0#
0W
0Y
0P
1[!
0\!
1_
1Z
03
12
03!
14!
08
17
#274000
1#
1W
1Y
1P
#275000
0#
0W
0Y
0P
1\!
0Z
1`
0^
13
04!
16!
17!
1a
07
15
14
#276000
1#
1W
1Y
1P
#277000
0#
0W
0Y
0P
0[!
0\!
0_
1Z!
0`
1Z
1b
0a
03
02
11
1L!
15!
07!
0b
1a
1d
0c
1:
16
04
0d
1c
1f
0e
0f
1e
1h
0g
0h
1g
1j
0i
0j
1i
1k
0k
#278000
1#
1W
1Y
1P
