lab4/part3/simulation/qsim/lab4part3.msim.vcd
$comment
	File created using the following command:
		vcd file lab4part3.msim.vcd -direction
$end
$date
	Wed Aug 24 23:09:39 2022
$end
$version
	ModelSim Version 10.1d
$end
$timescale
	1ps
$end
$scope module lab4part3_vlg_vec_tst $end
$var reg 1 ! clock50 $end
$var wire 1 " b [3] $end
$var wire 1 # b [2] $end
$var wire 1 $ b [1] $end
$var wire 1 % b [0] $end
$var wire 1 & debug [3] $end
$var wire 1 ' debug [2] $end
$var wire 1 ( debug [1] $end
$var wire 1 ) debug [0] $end
$var wire 1 * hex0 [0] $end
$var wire 1 + hex0 [1] $end
$var wire 1 , hex0 [2] $end
$var wire 1 - hex0 [3] $end
$var wire 1 . hex0 [4] $end
$var wire 1 / hex0 [5] $end
$var wire 1 0 hex0 [6] $end
$var wire 1 1 sampler $end
$scope module i1 $end
$var wire 1 2 gnd $end
$var wire 1 3 vcc $end
$var wire 1 4 unknown $end
$var tri1 1 5 devclrn $end
$var tri1 1 6 devpor $end
$var tri1 1 7 devoe $end
$var wire 1 8 clock50~input_o $end
$var wire 1 9 ~QUARTUS_CREATED_GND~I_combout $end
$var wire 1 : clock50~inputCLKENA0_outclk $end
$var wire 1 ; u0|n[0]~3_combout $end
$var wire 1 < i~0_combout $end
$var wire 1 = i~2_combout $end
$var wire 1 > i~1_combout $end
$var wire 1 ? Equal0~0_combout $end
$var wire 1 @ e~q $end
$var wire 1 A u0|n~0_combout $end
$var wire 1 B u0|n[2]~1_combout $end
$var wire 1 C u0|n[1]~DUPLICATE_q $end
$var wire 1 D u0|n~2_combout $end
$var wire 1 E h0|hex[5]~0_combout $end
$var wire 1 F h0|hex[4]~1_combout $end
$var wire 1 G u0|n[0]~DUPLICATE_q $end
$var wire 1 H h0|hex[3]~2_combout $end
$var wire 1 I h0|hex[2]~3_combout $end
$var wire 1 J h0|hex[1]~4_combout $end
$var wire 1 K h0|hex[0]~5_combout $end
$var wire 1 L i [2] $end
$var wire 1 M i [1] $end
$var wire 1 N i [0] $end
$var wire 1 O u0|n [3] $end
$var wire 1 P u0|n [2] $end
$var wire 1 Q u0|n [1] $end
$var wire 1 R u0|n [0] $end
$var wire 1 S h0|hex [0] $end
$var wire 1 T h0|hex [1] $end
$var wire 1 U h0|hex [2] $end
$var wire 1 V h0|hex [3] $end
$var wire 1 W h0|hex [4] $end
$var wire 1 X h0|hex [5] $end
$var wire 1 Y h0|hex [6] $end
$upscope $end
$upscope $end
$enddefinitions $end
#0
$dumpvars
1!
0%
0$
0#
0"
0)
0(
0'
0&
10
0/
0.
0-
0,
0+
0*
x1
02
13
x4
15
16
17
18
09
1:
1;
0<
1=
1>
0?
0@
0A
0B
0C
0D
0E
0F
0G
0H
0I
0J
0K
0N
0M
0L
0R
0Q
0P
0O
1Y
zX
zW
zV
zU
zT
zS
$end
#100000
0!
08
0:
01
#200000
1!
18
1:
11
1N
1M
0>
#300000
0!
08
0:
01
#400000
1!
18
1:
11
0N
1<
0=
1>
#500000
0!
08
0:
01
#600000
1!
18
1:
11
1N
0M
1L
0>
#700000
0!
08
0:
01
#800000
1!
18
1:
11
0N
0<
1?
#900000
0!
08
0:
01
#1000000
1!
18
1:
11
1@
0L
1=
1>
0?
#1100000
0!
08
0:
01
#1200000
1!
18
1:
11
1G
1R
0@
1N
1M
0;
1A
0>
1H
1E
1F
1K
1-
1/
1.
1*
#1300000
0!
08
0:
01
#1400000
1!
18
1:
11
0N
1<
0=
1>
#1500000
0!
08
0:
01
#1600000
1!
18
1:
11
1N
0M
1L
0>
#1700000
0!
08
0:
01
#1800000
1!
18
1:
11
0N
0<
1?
#1900000
0!
08
0:
01
#2000000
1!
18
1:
11
1@
0L
1=
1>
0?
#2100000
0!
08
0:
01
#2200000
1!
18
1:
11
0G
1C
1Q
0R
0@
1N
1M
1;
0>
0H
0Y
0F
1I
0K
0-
00
0.
1,
0*
#2300000
0!
08
0:
01
#2400000
1!
18
1:
11
0N
1<
0=
1>
#2500000
0!
08
0:
01
#2600000
1!
18
1:
11
1N
0M
1L
0>
#2700000
0!
08
0:
01
#2800000
1!
18
1:
11
0N
0<
1?
#2900000
0!
08
0:
01
#3000000
1!
18
1:
11
1@
0L
1=
1>
0?
#3100000
0!
08
0:
01
#3200000
1!
18
1:
11
1G
1R
0@
1N
1M
0;
0A
0>
1F
0I
1.
0,
#3300000
0!
08
0:
01
#3400000
1!
18
1:
11
0N
1<
0=
1>
#3500000
0!
08
0:
01
#3600000
1!
18
1:
11
1N
0M
1L
0>
#3700000
0!
08
0:
01
#3800000
1!
18
1:
11
0N
0<
1?
#3900000
0!
08
0:
01
#4000000
1!
18
1:
11
1@
0L
1B
1=
1>
0?
#4100000
0!
08
0:
01
#4200000
1!
18
1:
11
0G
0C
1P
0Q
0R
0@
1N
1M
1;
0>
1H
0E
1K
1-
0/
1*
#4300000
0!
08
0:
01
#4400000
1!
18
1:
11
0N
1<
0=
1>
#4500000
0!
08
0:
01
#4600000
1!
18
1:
11
1N
0M
1L
0>
#4700000
0!
08
0:
01
#4800000
1!
18
1:
11
0N
0<
1?
#4900000
0!
08
0:
01
#5000000
1!
18
1:
11
1@
0L
1=
1>
0?
#5100000
0!
08
0:
01
#5200000
1!
18
1:
11
1G
1R
0@
1N
1M
0;
1A
0>
0H
1J
0K
0-
1+
0*
#5300000
0!
08
0:
01
#5400000
1!
18
1:
11
0N
1<
0=
1>
#5500000
0!
08
0:
01
#5600000
1!
18
1:
11
1N
0M
1L
0>
#5700000
0!
08
0:
01
#5800000
1!
18
1:
11
0N
0<
1?
#5900000
0!
08
0:
01
#6000000
1!
18
1:
11
1@
0L
1=
1>
0?
#6100000
0!
08
0:
01
#6200000
1!
18
1:
11
0G
1C
1Q
0R
0@
1N
1M
1;
0>
0F
0.
#6300000
0!
08
0:
01
#6400000
1!
18
1:
11
0N
1<
0=
1>
#6500000
0!
08
0:
01
#6600000
1!
18
1:
11
1N
0M
1L
0>
#6700000
0!
08
0:
01
#6800000
1!
18
1:
11
0N
0<
1?
#6900000
0!
08
0:
01
#7000000
1!
18
1:
11
1@
0L
1=
1>
0?
#7100000
0!
08
0:
01
#7200000
1!
18
1:
11
1G
1R
0@
1N
1M
0;
0A
1D
0>
1H
1Y
1E
1F
0J
1-
10
1/
1.
0+
#7300000
0!
08
0:
01
#7400000
1!
18
1:
11
0N
1<
0=
1>
#7500000
0!
08
0:
01
#7600000
1!
18
1:
11
1N
0M
1L
0>
#7700000
0!
08
0:
01
#7800000
1!
18
1:
11
0N
0<
1?
#7900000
0!
08
0:
01
#8000000
1!
18
1:
11
1@
0L
0B
1=
1>
0?
#8100000
0!
08
0:
01
#8200000
1!
18
1:
11
0G
1O
0C
0P
0Q
0R
0@
1N
1M
1;
0>
0H
0Y
0E
0F
0-
00
0/
0.
#8300000
0!
08
0:
01
#8400000
1!
18
1:
11
0N
1<
0=
1>
#8500000
0!
08
0:
01
#8600000
1!
18
1:
11
1N
0M
1L
0>
#8700000
0!
08
0:
01
#8800000
1!
18
1:
11
0N
0<
1?
#8900000
0!
08
0:
01
#9000000
1!
18
1:
11
1@
0L
1=
1>
0?
#9100000
0!
08
0:
01
#9200000
1!
18
1:
11
1G
1R
0@
1N
1M
0;
0D
0>
1F
1.
#9300000
0!
08
0:
01
#9400000
1!
18
1:
11
0N
1<
0=
1>
#9500000
0!
08
0:
01
#9600000
1!
18
1:
11
1N
0M
1L
0>
#9700000
0!
08
0:
01
#9800000
1!
18
1:
11
0N
0<
1?
#9900000
0!
08
0:
01
