lab2/part4/simulation/qsim/lab2part4.msim.vcd
$comment
	File created using the following command:
		vcd file lab2part4.msim.vcd -direction
$end
$date
	Sun Aug 14 22:51:33 2022
$end
$version
	ModelSim Version 10.1d
$end
$timescale
	1ps
$end
$scope module lab2part4_vlg_vec_tst $end
$var reg 1 ! c_in $end
$var reg 4 " x [3:0] $end
$var reg 4 # y [3:0] $end
$var wire 1 $ hex0 [0] $end
$var wire 1 % hex0 [1] $end
$var wire 1 & hex0 [2] $end
$var wire 1 ' hex0 [3] $end
$var wire 1 ( hex0 [4] $end
$var wire 1 ) hex0 [5] $end
$var wire 1 * hex0 [6] $end
$var wire 1 + hex1 [0] $end
$var wire 1 , hex1 [1] $end
$var wire 1 - hex1 [2] $end
$var wire 1 . hex1 [3] $end
$var wire 1 / hex1 [4] $end
$var wire 1 0 hex1 [5] $end
$var wire 1 1 hex1 [6] $end
$var wire 1 2 hex3 [0] $end
$var wire 1 3 hex3 [1] $end
$var wire 1 4 hex3 [2] $end
$var wire 1 5 hex3 [3] $end
$var wire 1 6 hex3 [4] $end
$var wire 1 7 hex3 [5] $end
$var wire 1 8 hex3 [6] $end
$var wire 1 9 hex5 [0] $end
$var wire 1 : hex5 [1] $end
$var wire 1 ; hex5 [2] $end
$var wire 1 < hex5 [3] $end
$var wire 1 = hex5 [4] $end
$var wire 1 > hex5 [5] $end
$var wire 1 ? hex5 [6] $end
$var wire 1 @ led9 $end
$var wire 1 A sampler $end
$scope module i1 $end
$var wire 1 B gnd $end
$var wire 1 C vcc $end
$var wire 1 D unknown $end
$var tri1 1 E devclrn $end
$var tri1 1 F devpor $end
$var tri1 1 G devoe $end
$var wire 1 H ~QUARTUS_CREATED_GND~I_combout $end
$var wire 1 I x[3]~input_o $end
$var wire 1 J y[1]~input_o $end
$var wire 1 K x[1]~input_o $end
$var wire 1 L x[2]~input_o $end
$var wire 1 M y[2]~input_o $end
$var wire 1 N y[3]~input_o $end
$var wire 1 O led9~0_combout $end
$var wire 1 P y[0]~input_o $end
$var wire 1 Q h1|hex[6]~0_combout $end
$var wire 1 R h1|hex[5]~1_combout $end
$var wire 1 S h1|hex[4]~2_combout $end
$var wire 1 T h1|Equal4~0_combout $end
$var wire 1 U h1|hex[1]~3_combout $end
$var wire 1 V h1|hex[0]~4_combout $end
$var wire 1 W x[0]~input_o $end
$var wire 1 X h0|hex[6]~0_combout $end
$var wire 1 Y h0|hex[5]~1_combout $end
$var wire 1 Z h0|hex[4]~2_combout $end
$var wire 1 [ h0|Equal4~0_combout $end
$var wire 1 \ h0|hex[1]~3_combout $end
$var wire 1 ] h0|hex[0]~4_combout $end
$var wire 1 ^ c_in~input_o $end
$var wire 1 _ f1|c_out~0_combout $end
$var wire 1 ` f1|s~combout $end
$var wire 1 a g5|m[3]~0_combout $end
$var wire 1 b f3|s~combout $end
$var wire 1 c f0|s~combout $end
$var wire 1 d f3|c_out~0_combout $end
$var wire 1 e f2|s~combout $end
$var wire 1 f g6|hex[6]~0_combout $end
$var wire 1 g g6|hex[5]~1_combout $end
$var wire 1 h g6|hex[4]~2_combout $end
$var wire 1 i g6|Equal4~0_combout $end
$var wire 1 j g6|hex[1]~3_combout $end
$var wire 1 k g6|hex[0]~4_combout $end
$var wire 1 l h1|hex [0] $end
$var wire 1 m h1|hex [1] $end
$var wire 1 n h1|hex [2] $end
$var wire 1 o h1|hex [3] $end
$var wire 1 p h1|hex [4] $end
$var wire 1 q h1|hex [5] $end
$var wire 1 r h1|hex [6] $end
$var wire 1 s g6|hex [0] $end
$var wire 1 t g6|hex [1] $end
$var wire 1 u g6|hex [2] $end
$var wire 1 v g6|hex [3] $end
$var wire 1 w g6|hex [4] $end
$var wire 1 x g6|hex [5] $end
$var wire 1 y g6|hex [6] $end
$var wire 1 z h0|hex [0] $end
$var wire 1 { h0|hex [1] $end
$var wire 1 | h0|hex [2] $end
$var wire 1 } h0|hex [3] $end
$var wire 1 ~ h0|hex [4] $end
$var wire 1 !! h0|hex [5] $end
$var wire 1 "! h0|hex [6] $end
$upscope $end
$upscope $end
$enddefinitions $end
#0
$dumpvars
1!
b0 "
b0 #
1*
1)
1(
1'
0&
0%
1$
11
00
0/
0.
0-
0,
0+
18
07
06
05
04
03
02
1?
0>
0=
0<
0;
0:
09
0@
xA
0B
1C
xD
1E
1F
1G
0H
0I
0J
0K
0L
0M
0N
0O
0P
1Q
0R
0S
0T
0U
0V
0W
1X
0Y
0Z
0[
0\
0]
1^
0_
0`
1a
0b
1c
0d
0e
1f
1g
1h
0i
0j
1k
zr
zq
zp
0o
zn
zm
zl
zy
zx
zw
1v
zu
zt
zs
z"!
z!!
z~
0}
z|
z{
zz
$end
#70000
0!
0^
0A
0c
0g
0h
0v
0k
0)
0(
0'
0$
#150000
b100 "
b100 #
b110 #
b111 #
1P
1J
1M
1L
1A
1`
1c
1b
1R
1S
1o
0X
1Z
1}
1]
0a
17
16
15
0?
1=
1<
19
1g
1h
1v
1k
10
1/
1.
1+
1)
1(
1'
1$
#250000
1!
1^
0A
1_
0`
0c
1e
0f
0g
0h
0v
0k
0*
0)
0(
0'
0$
1g
1i
1)
1&
#340000
b1100 "
b1101 "
b1111 #
b1001 "
b1011 #
b1001 #
0!
0J
0M
1N
1W
0L
1I
0^
1A
0_
1`
0b
1d
0Q
0R
0o
0}
0]
0e
08
07
05
0<
09
1f
0g
0i
1*
0)
0&
0f
0*
#450000
1!
1^
0A
1c
1h
1(
#560000
b1000 "
b1 #
b101 #
0!
1M
0N
0W
0^
1A
1b
0d
1e
0`
1U
0Z
13
0=
1g
1)
#700000
1!
1^
0A
1`
0c
0g
1v
1k
0)
1'
1$
#830000
b1010 "
b100 #
b0 #
0!
0P
0M
1K
0^
1A
0e
1Q
0S
0U
1O
18
06
03
1@
1f
0h
0v
0k
1*
0(
0'
0$
#900000
1!
1^
0A
1c
1g
1h
1v
1k
1)
1(
1'
1$
#930000
b10 "
b10 #
b1010 #
b0 "
b1011 #
b1111 #
1P
1J
1M
1N
0K
0I
1A
1_
0`
0c
1e
0Q
1X
0b
1d
0e
08
1?
0f
0h
0v
1i
0k
0*
0(
0'
1&
0$
0g
0i
1j
0)
0&
1%
#960000
0!
0^
0A
0_
1`
1c
1b
0d
1e
1h
0j
1(
0%
1j
1%
