lab7/lab7part4/simulation/qsim/lab7part4.msim.vcd
$comment
	File created using the following command:
		vcd file lab7part4.msim.vcd -direction
$end
$date
	Wed Oct 05 22:37:38 2022
$end
$version
	ModelSim Version 10.1d
$end
$timescale
	1ps
$end
$scope module lab7part4_vlg_vec_tst $end
$var reg 1 ! clk50 $end
$var reg 1 " key0 $end
$var reg 1 # key1 $end
$var reg 3 $ sw [2:0] $end
$var wire 1 % led [2] $end
$var wire 1 & led [1] $end
$var wire 1 ' led [0] $end
$var wire 1 ( ledr $end
$var wire 1 ) sampler $end
$scope module i1 $end
$var wire 1 * gnd $end
$var wire 1 + vcc $end
$var wire 1 , unknown $end
$var tri1 1 - devclrn $end
$var tri1 1 . devpor $end
$var tri1 1 / devoe $end
$var wire 1 0 u2|temp[1]~4_combout $end
$var wire 1 1 Selector8~0_combout $end
$var wire 1 2 u2|temp~2_combout $end
$var wire 1 3 y_D.B_186~combout $end
$var wire 1 4 clk50~input_o $end
$var wire 1 5 key0~input_o $end
$var wire 1 6 ~QUARTUS_CREATED_GND~I_combout $end
$var wire 1 7 key0~inputCLKENA0_outclk $end
$var wire 1 8 y_Q.D~0_combout $end
$var wire 1 9 y_D.E_159~combout $end
$var wire 1 : y_Q~7_combout $end
$var wire 1 ; y_Q~4_q $end
$var wire 1 < key1~input_o $end
$var wire 1 = Selector7~0_combout $end
$var wire 1 > sw[2]~input_o $end
$var wire 1 ? sw[0]~input_o $end
$var wire 1 @ sw[1]~input_o $end
$var wire 1 A u2|temp~3_combout $end
$var wire 1 B u2|temp~0_combout $end
$var wire 1 C u2|temp~1_combout $end
$var wire 1 D u3|q~1_combout $end
$var wire 1 E count_en~combout $end
$var wire 1 F u3|q~0_combout $end
$var wire 1 G u3|q~2_combout $end
$var wire 1 H Equal0~0_combout $end
$var wire 1 I Selector6~0_combout $end
$var wire 1 J y_D.C_177~combout $end
$var wire 1 K y_Q~6_combout $end
$var wire 1 L y_Q~3_q $end
$var wire 1 M y_Q.C~0_combout $end
$var wire 1 N y_D.D_168~combout $end
$var wire 1 O WideOr3~combout $end
$var wire 1 P y_D.F_150~combout $end
$var wire 1 Q y_Q~5_combout $end
$var wire 1 R y_Q~2_q $end
$var wire 1 S z~0_combout $end
$var wire 1 T u3|q [2] $end
$var wire 1 U u3|q [1] $end
$var wire 1 V u3|q [0] $end
$var wire 1 W u2|temp [3] $end
$var wire 1 X u2|temp [2] $end
$var wire 1 Y u2|temp [1] $end
$var wire 1 Z u2|temp [0] $end
$upscope $end
$upscope $end
$enddefinitions $end
#0
$dumpvars
0!
0"
0#
b0 $
0'
0&
0%
0(
x)
0*
1+
x,
1-
1.
1/
00
01
02
03
04
05
06
07
08
09
1:
0;
0<
1=
0>
0?
0@
1A
0B
0C
1D
0E
0F
0G
0H
0I
0J
0K
0L
0M
0N
0O
1P
1Q
0R
1S
0V
0U
0T
zZ
0Y
0X
0W
$end
#10000
1"
15
17
0)
1X
1R
1;
1B
11
1O
1'
1%
13
0P
0:
#20000
1#
0"
1<
05
07
1)
0A
1C
#30000
1"
15
17
0)
1W
0X
0;
01
1E
0O
0S
0%
03
1P
1(
1:
#40000
0"
05
07
1)
#50000
1"
15
17
0)
1V
1;
0D
1G
0B
0E
1I
1O
1S
1%
0C
1J
0P
0(
1K
0:
0Q
#60000
0"
05
07
1)
#70000
1"
15
17
0)
0W
0R
1L
0;
0I
1M
0S
0'
1&
0%
0J
1N
1(
1Q
#80000
0"
05
07
1)
#90000
1"
15
17
0)
1R
18
0M
1'
19
0N
1:
0K
0Q
#100000
0"
05
07
1)
#110000
1"
15
17
0)
0R
0L
1;
08
1E
0O
0'
0&
1%
09
1P
1Q
#120000
b1 $
0#
0"
1?
0<
05
07
1)
1C
0V
1D
0G
#130000
1"
15
17
0)
1W
1R
1I
0E
1O
1S
1'
1J
0P
0(
1K
0:
0Q
#140000
1#
0"
1<
05
07
1)
0C
#150000
1"
15
17
0)
0W
0R
1L
0;
0I
1M
0S
0'
1&
0%
0J
1N
1(
1Q
#160000
0"
05
07
1)
#170000
1"
15
17
0)
1R
18
0M
1'
19
0N
1:
0K
0Q
#180000
0"
05
07
1)
#190000
1"
15
17
0)
0R
0L
1;
08
1E
0O
0'
0&
1%
09
1P
1Q
#200000
0"
05
07
1)
#210000
1"
15
17
0)
1V
1R
0D
1G
11
0E
1O
1S
1'
13
0P
0(
0:
#220000
0"
05
07
1)
#230000
1"
15
17
0)
0;
01
1E
0O
0S
0%
03
1P
1(
1:
#240000
0"
05
07
1)
#250000
1"
15
17
0)
1U
0V
1;
1D
11
0E
1O
1S
1%
13
0P
0(
0:
#260000
0"
05
07
1)
#270000
1"
15
17
0)
0;
01
1E
0O
0S
0%
03
1P
1(
1:
#280000
0"
05
07
1)
#290000
1"
15
17
0)
1V
1;
0D
1F
0G
11
0E
1O
1S
1%
13
0P
0(
0:
#300000
0"
05
07
1)
#310000
1"
15
17
0)
0;
01
1E
0O
0S
0%
03
1P
1(
1:
#320000
b11 $
b10 $
0#
0"
0?
1@
0<
05
07
1)
10
1C
0U
0V
1D
0F
#330000
1"
15
17
0)
1W
1Y
1;
1I
0E
1O
1S
1%
1J
0P
0(
1K
0:
0Q
#340000
1#
0"
1<
05
07
1)
00
12
0C
1A
#350000
1"
15
17
0)
0W
1X
0Y
0R
1L
0;
0I
1M
0S
0'
1&
0%
0J
1N
1(
1Q
#360000
0"
05
07
1)
#370000
1"
15
17
0)
1R
18
0M
1'
19
0N
1:
0K
0Q
#380000
0"
05
07
1)
#390000
1"
15
17
0)
0R
0L
1;
08
1E
0O
0'
0&
1%
09
1P
1Q
#400000
0"
05
07
1)
#410000
1"
15
17
0)
1V
1R
0D
1G
11
02
1B
0E
1O
1S
1'
13
0A
1C
0P
0(
0:
#420000
0"
05
07
1)
#430000
1"
15
17
0)
1W
0X
0;
01
1E
0O
0S
0%
03
1P
1(
1:
#440000
0"
05
07
1)
#450000
1"
15
17
0)
1U
0V
1;
1D
0B
0E
1I
1O
1S
1%
0C
1J
0P
0(
1K
0:
0Q
#460000
0"
05
07
1)
#470000
1"
15
17
0)
0W
0R
1L
0;
0I
1M
0S
0'
1&
0%
0J
1N
1(
1Q
#480000
0"
05
07
1)
#490000
1"
15
17
0)
1R
18
0M
1'
19
0N
1:
0K
0Q
#500000
0"
05
07
1)
#510000
1"
15
17
0)
0R
0L
1;
08
1E
0O
0'
0&
1%
09
1P
1Q
#520000
0"
05
07
1)
#530000
1"
15
17
0)
1V
1R
0D
1F
0G
11
0E
1O
1S
1'
13
0P
0(
0:
#540000
0"
05
07
1)
#550000
1"
15
17
0)
0;
01
1E
0O
0S
0%
03
1P
1(
1:
#560000
0"
05
07
1)
#570000
1"
15
17
0)
0U
1T
0V
1;
0F
1H
11
0E
1O
1S
1%
01
13
0P
0(
03
0:
0Q
#580000
0"
05
07
1)
#590000
b11 $
0#
1"
1?
0<
15
17
0)
1C
1D
1F
0H
11
13
1Q
0T
0R
0;
0F
01
0O
0'
0%
03
1P
1:
#600000
0"
05
07
1)
#610000
1#
1"
1<
15
17
0)
0=
0C
1W
1R
1;
1I
1=
1O
1'
1%
1J
0P
1K
0:
0Q
#620000
0"
05
07
1)
#630000
1"
15
17
0)
0W
0R
1L
0;
0I
1M
0S
0'
1&
0%
0J
1N
1(
1Q
#640000
0"
05
07
1)
#650000
1"
15
17
0)
1R
18
0M
1'
19
0N
1:
0K
0Q
#660000
0"
05
07
1)
#670000
1"
15
17
0)
0R
0L
1;
08
1E
0O
0'
0&
1%
09
1P
1Q
#680000
0"
05
07
1)
#690000
1"
15
17
0)
1V
1R
0D
1G
11
0E
1O
1S
1'
13
0P
0(
0:
#700000
0"
05
07
1)
#710000
1"
15
17
0)
0;
01
1E
0O
0S
0%
03
1P
1(
1:
#720000
0"
05
07
1)
#730000
1"
15
17
0)
1U
0V
1;
1D
11
0E
1O
1S
1%
13
0P
0(
0:
#740000
0"
05
07
1)
#750000
1"
15
17
0)
0;
01
1E
0O
0S
0%
03
1P
1(
1:
#760000
0"
05
07
1)
#770000
1"
15
17
0)
1V
1;
0D
0G
1H
11
0E
1O
1S
1%
01
13
0P
0(
03
0:
0Q
#780000
0#
0"
0<
05
07
1)
1C
0U
0V
1D
0H
11
13
1Q
#790000
1"
15
17
0)
1W
0;
01
1B
1E
0O
0S
0%
03
1P
1(
1:
#800000
b111 $
b101 $
b100 $
1#
0"
0?
0@
1>
1<
05
07
1)
#810000
1"
15
17
0)
1V
1;
0D
1H
0B
0E
1I
1O
1S
1%
0I
0C
1J
0P
0(
0J
1K
0:
0Q
0K
#820000
0"
05
07
1)
#830000
1"
15
17
0)
0W
0R
0;
0=
0O
0'
0%
#840000
b101 $
0#
0"
1?
0<
05
07
1)
10
1G
0H
1=
1P
1:
1Q
0V
1D
0G
#850000
1"
15
17
0)
1Y
1R
1;
11
1O
1'
1%
13
0P
0:
#860000
1#
0"
1<
05
07
1)
00
12
1A
#870000
1"
15
17
0)
1X
0Y
0;
01
1E
0O
0S
0%
03
1P
1(
1:
#880000
0"
05
07
1)
#890000
1"
15
17
0)
1V
1;
0D
1G
11
02
1B
0E
1O
1S
1%
13
0A
1C
0P
0(
0:
#900000
0"
05
07
1)
#910000
1"
15
17
0)
1W
0X
0;
01
1E
0O
0S
0%
03
1P
1(
1:
#920000
0"
05
07
1)
#930000
1"
15
17
0)
1U
0V
1;
1D
0B
0E
1I
1O
1S
1%
0C
1J
0P
0(
1K
0:
0Q
#940000
0"
05
07
1)
#950000
1"
15
17
0)
0W
0R
1L
0;
0I
1M
0S
0'
1&
0%
0J
1N
1(
1Q
#960000
0"
05
07
1)
#970000
1"
15
17
0)
1R
18
0M
1'
19
0N
1:
0K
0Q
#980000
0"
05
07
1)
#990000
1"
15
17
0)
0R
0L
1;
08
1E
0O
0'
0&
1%
09
1P
1Q
#1000000
0"
05
07
1)
#1010000
1"
15
17
0)
1V
1R
0D
1F
0G
11
0E
1O
1S
1'
13
0P
0(
0:
#1020000
0"
05
07
1)
#1030000
1"
15
17
0)
0;
01
1E
0O
0S
0%
03
1P
1(
1:
#1040000
0"
05
07
1)
#1050000
1"
15
17
0)
0U
1T
0V
1;
0F
1H
11
0E
1O
1S
1%
01
13
0P
0(
03
0:
0Q
#1060000
0"
05
07
1)
#1070000
1"
15
17
0)
0R
0;
0=
0O
0'
0%
#1080000
b111 $
b110 $
0#
0"
0?
1@
0<
05
07
1)
1A
1C
1D
1F
0H
1=
1P
1:
1Q
0T
0F
#1090000
1"
15
17
0)
1W
1X
1R
1;
1B
1I
1O
1'
1%
1J
0P
1K
0:
0Q
#1100000
1#
0"
1<
05
07
1)
0A
#1110000
1"
15
17
0)
0X
0R
1L
0;
0I
1M
0S
0'
1&
0%
0J
1N
1(
1Q
#1120000
0"
05
07
1)
#1130000
1"
15
17
0)
1R
18
0M
1'
19
0N
1:
0K
0Q
#1140000
0"
05
07
1)
#1150000
1"
15
17
0)
0R
0L
1;
08
1E
0O
0'
0&
1%
09
1P
1Q
#1160000
0"
05
07
1)
#1170000
1"
15
17
0)
1V
1R
0D
1G
0B
0E
1I
1O
1S
1'
0C
1J
0P
0(
1K
0:
0Q
#1180000
0"
05
07
1)
#1190000
1"
15
17
0)
0W
0R
1L
0;
0I
1M
0S
0'
1&
0%
0J
1N
1(
1Q
#1199000
b10 $
b0 $
0#
0"
0@
0>
0<
05
07
1)
1A
0V
1D
0G
