lab7/lab7part4/simulation/qsim/lab7part4.msim.vcd
$comment
	File created using the following command:
		vcd file lab7part4.msim.vcd -direction
$end
$date
	Fri Sep 30 16:53:57 2022
$end
$version
	ModelSim Version 10.1d
$end
$timescale
	1ps
$end
$scope module lab7part4_vlg_vec_tst $end
$var reg 1 ! clk50 $end
$var reg 1 " key0 $end
$var reg 1 # key1 $end
$var reg 3 $ sw [2:0] $end
$var wire 1 % led [2] $end
$var wire 1 & led [1] $end
$var wire 1 ' led [0] $end
$var wire 1 ( ledr $end
$var wire 1 ) sampler $end
$scope module i1 $end
$var wire 1 * gnd $end
$var wire 1 + vcc $end
$var wire 1 , unknown $end
$var tri1 1 - devclrn $end
$var tri1 1 . devpor $end
$var tri1 1 / devoe $end
$var wire 1 0 u2|temp~2_combout $end
$var wire 1 1 u2|temp[1]~3_combout $end
$var wire 1 2 clk50~input_o $end
$var wire 1 3 key0~input_o $end
$var wire 1 4 ~QUARTUS_CREATED_GND~I_combout $end
$var wire 1 5 key0~inputCLKENA0_outclk $end
$var wire 1 6 sw[0]~input_o $end
$var wire 1 7 sw[1]~input_o $end
$var wire 1 8 sw[2]~input_o $end
$var wire 1 9 u3|q~2_combout $end
$var wire 1 : key1~input_o $end
$var wire 1 ; count_en~combout $end
$var wire 1 < u3|q~1_combout $end
$var wire 1 = u3|q~0_combout $end
$var wire 1 > Equal0~0_combout $end
$var wire 1 ? u2|temp~0_combout $end
$var wire 1 @ u2|temp~1_combout $end
$var wire 1 A y_Q~6_combout $end
$var wire 1 B y_Q~3_q $end
$var wire 1 C y_Q~7_combout $end
$var wire 1 D y_Q~4_q $end
$var wire 1 E y_Q~5_combout $end
$var wire 1 F y_Q~2_q $end
$var wire 1 G y_Q.A~0_combout $end
$var wire 1 H y_Q.F~0_combout $end
$var wire 1 I z~combout $end
$var wire 1 J u3|q [2] $end
$var wire 1 K u3|q [1] $end
$var wire 1 L u3|q [0] $end
$var wire 1 M u2|temp [3] $end
$var wire 1 N u2|temp [2] $end
$var wire 1 O u2|temp [1] $end
$var wire 1 P u2|temp [0] $end
$upscope $end
$upscope $end
$enddefinitions $end
#0
$dumpvars
1!
0"
0#
b111 $
0'
0&
0%
1(
x)
0*
1+
x,
1-
1.
1/
00
01
12
03
04
05
16
17
18
09
0:
0;
1<
0=
0>
0?
1@
0A
0B
1C
0D
1E
0F
1G
0H
1I
0L
0K
0J
zP
0O
0N
0M
$end
#10000
1"
13
15
0)
1F
1D
0C
0G
1H
1'
1%
0I
0(
#20000
0!
1#
0"
02
1:
03
05
1)
#30000
1"
13
15
0)
0D
1;
0@
1C
0H
0%
1I
1(
#40000
1!
0"
12
03
05
1)
#50000
1"
13
15
0)
1L
1D
0<
1=
0;
1@
0C
1H
1%
0I
0(
#60000
0!
0"
02
03
05
1)
#70000
1"
13
15
0)
0D
1;
0@
1C
0H
0%
1I
1(
#80000
1!
0"
12
03
05
1)
#90000
1"
13
15
0)
1K
0L
1D
1<
0;
1@
0C
1H
1%
0I
0(
#100000
0!
0"
02
03
05
1)
#110000
1"
13
15
0)
0D
1;
0@
1C
0H
0%
1I
1(
#120000
1!
0"
12
03
05
1)
#130000
1"
13
15
0)
1L
1D
19
0<
0=
0;
1@
0C
1H
1%
0I
0(
#140000
0!
0"
02
03
05
1)
#150000
1"
13
15
0)
0D
1;
0@
1C
0H
0%
1I
1(
#160000
1!
0"
12
03
05
1)
#170000
1"
13
15
0)
0K
0L
1J
1D
09
1>
0;
1@
0C
1H
1%
0E
0I
0(
#180000
0!
0"
02
03
05
1)
#190000
1"
13
15
0)
0F
0D
0@
1G
0H
0'
0%
#200000
1!
0"
12
03
05
1)
#210000
1"
13
15
0)
#220000
0!
0"
02
03
05
1)
#230000
1"
13
15
0)
#240000
1!
0"
12
03
05
1)
#250000
1"
13
15
0)
#260000
0!
0"
02
03
05
1)
#270000
1"
13
15
0)
#280000
1!
0"
12
03
05
1)
#290000
1"
13
15
0)
#300000
0!
0"
02
03
05
1)
#310000
1"
13
15
0)
#320000
1!
0"
12
03
05
1)
#330000
1"
13
15
0)
#340000
0!
0"
02
03
05
1)
#350000
1"
13
15
0)
#360000
1!
0"
12
03
05
1)
#370000
1"
13
15
0)
#380000
0!
0"
02
03
05
1)
#390000
1"
13
15
0)
#400000
1!
0"
12
03
05
1)
#410000
1"
13
15
0)
#420000
0!
0"
02
03
05
1)
#430000
1"
13
15
0)
#440000
1!
0"
12
03
05
1)
#450000
1"
13
15
0)
#460000
0!
0"
02
03
05
1)
#470000
1"
13
15
0)
#480000
1!
0"
12
03
05
1)
#490000
1"
13
15
0)
#500000
0!
0"
02
03
05
1)
#510000
1"
13
15
0)
#520000
1!
0"
12
03
05
1)
#530000
1"
13
15
0)
#540000
0!
0"
02
03
05
1)
#550000
1"
13
15
0)
#560000
1!
0"
12
03
05
1)
#570000
1"
13
15
0)
#580000
0!
0"
02
03
05
1)
#590000
1"
13
15
0)
#600000
1!
0"
12
03
05
1)
#610000
1"
13
15
0)
#620000
0!
0"
02
03
05
1)
#630000
1"
13
15
0)
#640000
1!
0"
12
03
05
1)
#650000
1"
13
15
0)
#660000
0!
0"
02
03
05
1)
#670000
1"
13
15
0)
#680000
1!
0"
12
03
05
1)
#690000
1"
13
15
0)
#700000
0!
0"
02
03
05
1)
#710000
1"
13
15
0)
#720000
1!
0"
12
03
05
1)
#730000
1"
13
15
0)
#740000
0!
0"
02
03
05
1)
#750000
1"
13
15
0)
#760000
1!
0"
12
03
05
1)
#770000
1"
13
15
0)
#780000
0!
0"
02
03
05
1)
#790000
1"
13
15
0)
#800000
1!
0"
12
03
05
1)
#810000
1"
13
15
0)
#820000
0!
0"
02
03
05
1)
#830000
1"
13
15
0)
#840000
1!
0"
12
03
05
1)
#850000
1"
13
15
0)
#860000
0!
0"
02
03
05
1)
#870000
1"
13
15
0)
#880000
1!
0"
12
03
05
1)
#890000
1"
13
15
0)
#900000
0!
0"
02
03
05
1)
#910000
1"
13
15
0)
#920000
1!
0"
12
03
05
1)
#930000
1"
13
15
0)
#940000
0!
0"
02
03
05
1)
#950000
1"
13
15
0)
#960000
1!
0"
12
03
05
1)
#970000
1"
13
15
0)
#980000
0!
0"
02
03
05
1)
#990000
1"
13
15
0)
